<?xml version="1.0" encoding="utf-8"?>
<!-- Generator: Adobe Illustrator 24.0.0, SVG Export Plug-In . SVG Version: 6.00 Build 0)  -->
<svg version="1.1" id="Capa_1" xmlns="http://www.w3.org/2000/svg" xmlns:xlink="http://www.w3.org/1999/xlink" x="0px" y="0px"
	 viewBox="0 0 50 50" style="enable-background:new 0 0 50 50;" xml:space="preserve">
<style type="text/css">
	.st0{fill:none;stroke:#000000;stroke-linecap:round;stroke-linejoin:round;stroke-miterlimit:10;}
</style>
<g>
	<path class="st0" d="M16.5,28.8c4.7-4.7,12.3-4.7,17,0"/>
	<path class="st0" d="M11.1,23.5c7.7-7.7,20.1-7.7,27.7,0"/>
	<path class="st0" d="M5,17.3c11-11,29-11,40,0"/>
	<ellipse transform="matrix(0.8869 -0.4619 0.4619 0.8869 -14.4126 15.7676)" class="st0" cx="25" cy="37.3" rx="3.6" ry="3.6"/>
</g>
</svg>
