<?xml version="1.0" encoding="utf-8"?>
<!-- Generator: Adobe Illustrator 24.0.0, SVG Export Plug-In . SVG Version: 6.00 Build 0)  -->
<svg version="1.1" id="Capa_1" xmlns="http://www.w3.org/2000/svg" xmlns:xlink="http://www.w3.org/1999/xlink" x="0px" y="0px"
	 viewBox="0 0 50 50" style="enable-background:new 0 0 50 50;" xml:space="preserve">
<style type="text/css">
	.st0{fill:none;stroke:#000000;stroke-linecap:round;stroke-linejoin:round;stroke-miterlimit:10;}
</style>
<g>
	<g>
		<polyline class="st0" points="26.3,34.9 31.4,45 36.5,34.9 		"/>
		<path class="st0" d="M13,34.9v5.1c0,2.8,2.3,5.1,5.1,5.1s5.1-2.3,5.1-5.1v-5.1"/>
	</g>
	<g>
		<path class="st0" d="M41.4,5L41.4,5c1.2,1.8,1.2,4.8,0,6.6l0,0c-1.2,1.8-1.2,4.8,0,6.6l0,0c1.2,1.8,1.2,4.8,0,6.6
			c0,0-0.9,3.9,0,5.3"/>
		<polyline class="st0" points="44.6,26.9 41.4,30.2 38.2,26.9 		"/>
		<path class="st0" d="M24.7,5L24.7,5c1.2,1.8,1.2,4.8,0,6.6l0,0c-1.2,1.8-1.2,4.8,0,6.6l0,0c1.2,1.8,1.2,4.8,0,6.6
			c0,0-0.9,3.9,0,5.3"/>
		<polyline class="st0" points="27.9,26.9 24.7,30.2 21.5,26.9 		"/>
		<path class="st0" d="M8,5L8,5c1.2,1.8,1.2,4.8,0,6.6l0,0c-1.2,1.8-1.2,4.8,0,6.6l0,0c1.2,1.8,1.2,4.8,0,6.6c0,0-0.9,3.9,0,5.3"/>
		<polyline class="st0" points="11.2,26.9 8,30.2 4.8,26.9 		"/>
	</g>
</g>
</svg>
