<?xml version="1.0" encoding="utf-8"?>
<!-- Generator: Adobe Illustrator 24.0.0, SVG Export Plug-In . SVG Version: 6.00 Build 0)  -->
<svg version="1.1" id="Capa_1" xmlns="http://www.w3.org/2000/svg" xmlns:xlink="http://www.w3.org/1999/xlink" x="0px" y="0px"
	 viewBox="0 0 900 500" style="enable-background:new 0 0 900 500;" xml:space="preserve">
<style type="text/css">
	.st0{fill:none;stroke:#000000;stroke-linecap:round;stroke-linejoin:round;stroke-miterlimit:10;}
	.st1{fill:#5EB132;}
	.st2{fill:#5EB130;}
	.st3{fill:none;stroke:#C0087F;stroke-miterlimit:10;}
	.st4{fill:#C0087F;}
</style>
<path class="st0" d="M585.5,331.3l-8.4,2.9l-2.5-7.6L585.5,331.3z M577.1,172.5c13.6,23.7,21.4,51.4,21.4,80.9
	c0,27.3-6.6,53-18.4,75.5 M301.5,339.7l1.8-8.7l7.8,1.7L301.5,339.7z M442.4,413.4c-27.3-0.4-55.1-7.7-80.5-22.8
	c-23.5-13.9-42.3-32.7-55.6-54.3 M441.1,86.6l6.6,5.9l-5.4,5.9L441.1,86.6z M306.5,171.3c14.1-23.4,34.4-43.8,60.2-58.2
	c23.8-13.3,49.5-20.1,74.9-20.8"/>
<g>
	<g>
		<polygon class="st1" points="471.8,212.2 440.6,255.6 440.6,241.9 432,241.9 432,274.6 440.7,274.6 480.8,218.7 		"/>
		<polygon class="st2" points="469.7,241.4 469.7,279.3 427.7,279.3 427.7,237.3 448.5,237.3 454.6,228.8 419.2,228.8 419.2,287.8 
			478.2,287.8 478.2,229.6 		"/>
	</g>
	<polygon points="455.5,261.2 448.7,270.7 451.5,274.6 465.1,274.6 	"/>
</g>
<path d="M653,379.7v8.1h8.8v1.2H653v8.9h-1.4v-19.4h11.6v1.2L653,379.7L653,379.7z M666.4,387.6c0.2-0.6,0.4-1.1,0.7-1.5
	s0.6-0.8,0.9-1.1c0.4-0.3,0.7-0.5,1.2-0.7c0.4-0.2,0.9-0.2,1.4-0.2c0.3,0,0.6,0,0.8,0.1c0.3,0.1,0.5,0.1,0.7,0.3l-0.1,0.9
	c0,0.1-0.1,0.2-0.3,0.2c-0.1,0-0.3,0-0.5-0.1s-0.5-0.1-0.9-0.1c-0.5,0-1,0.1-1.4,0.2c-0.4,0.2-0.8,0.4-1.1,0.7
	c-0.3,0.3-0.6,0.7-0.8,1.2s-0.5,1-0.7,1.6v8.8h-1.1v-13.6h0.7c0.2,0,0.3,0,0.3,0.1c0.1,0.1,0.1,0.2,0.1,0.3L666.4,387.6z
	 M679.5,384.1c1,0,1.8,0.2,2.6,0.5s1.4,0.8,1.9,1.4s0.9,1.3,1.2,2.2c0.3,0.9,0.4,1.8,0.4,2.9s-0.1,2-0.4,2.9
	c-0.3,0.9-0.7,1.6-1.2,2.2s-1.2,1.1-1.9,1.4c-0.8,0.3-1.6,0.5-2.6,0.5s-1.8-0.2-2.6-0.5s-1.4-0.8-2-1.4c-0.5-0.6-0.9-1.3-1.2-2.2
	c-0.3-0.9-0.4-1.8-0.4-2.9s0.1-2,0.4-2.9c0.3-0.9,0.7-1.6,1.2-2.2s1.2-1.1,2-1.4C677.6,384.2,678.5,384.1,679.5,384.1z M679.5,397.1
	c0.8,0,1.5-0.1,2.1-0.4s1.1-0.7,1.5-1.2s0.7-1.1,0.9-1.9c0.2-0.7,0.3-1.6,0.3-2.5s-0.1-1.7-0.3-2.5c-0.2-0.7-0.5-1.4-0.9-1.9
	s-0.9-0.9-1.5-1.2c-0.6-0.3-1.3-0.4-2.1-0.4s-1.5,0.1-2.1,0.4s-1.1,0.7-1.5,1.2s-0.7,1.2-0.9,1.9c-0.2,0.7-0.3,1.6-0.3,2.5
	s0.1,1.7,0.3,2.5c0.2,0.7,0.5,1.4,0.9,1.9s0.9,0.9,1.5,1.2C678,396.9,678.7,397.1,679.5,397.1z M690.6,386.7
	c0.6-0.8,1.4-1.4,2.2-1.9s1.7-0.7,2.8-0.7c0.7,0,1.4,0.1,2,0.4c0.6,0.2,1,0.6,1.4,1s0.7,1,0.8,1.6c0.2,0.6,0.3,1.3,0.3,2.1v8.7h-1.3
	v-8.7c0-1.3-0.3-2.3-0.9-3c-0.6-0.7-1.5-1.1-2.7-1.1c-0.9,0-1.7,0.2-2.5,0.7s-1.5,1.1-2.1,1.9v10.2h-1.3v-13.6h0.7
	c0.2,0,0.4,0.1,0.4,0.3L690.6,386.7z M707.9,398.1c-0.9,0-1.6-0.3-2.2-0.8c-0.5-0.5-0.8-1.3-0.8-2.4v-9.3h-2c-0.1,0-0.2,0-0.2-0.1
	c-0.1-0.1-0.1-0.1-0.1-0.2v-0.5l2.3-0.2l0.3-4.9c0-0.1,0.1-0.2,0.1-0.2c0.1-0.1,0.1-0.1,0.2-0.1h0.6v5.2h4.3v1h-4.3v9.2
	c0,0.4,0,0.7,0.1,1s0.2,0.5,0.4,0.7s0.4,0.3,0.6,0.4c0.2,0.1,0.5,0.1,0.7,0.1c0.3,0,0.6,0,0.8-0.1s0.4-0.2,0.6-0.3
	c0.2-0.1,0.3-0.2,0.4-0.3c0.1-0.1,0.2-0.1,0.3-0.1s0.1,0,0.2,0.1l0.4,0.6c-0.3,0.4-0.8,0.7-1.3,0.9
	C709.1,398,708.5,398.1,707.9,398.1z M731.4,388.2c0,1.5-0.2,2.9-0.7,4.1c-0.4,1.2-1.1,2.3-1.9,3.1c-0.8,0.9-1.8,1.5-2.9,2
	c-1.1,0.5-2.4,0.7-3.8,0.7s-2.6-0.2-3.7-0.7c-1.1-0.5-2.1-1.1-2.9-2c-0.8-0.9-1.4-1.9-1.9-3.1c-0.4-1.2-0.7-2.6-0.7-4.1
	s0.2-2.8,0.7-4.1c0.4-1.2,1.1-2.3,1.9-3.1c0.8-0.9,1.8-1.5,2.9-2c1.1-0.5,2.4-0.7,3.7-0.7s2.6,0.2,3.8,0.7c1.1,0.5,2.1,1.1,2.9,2
	c0.8,0.9,1.4,1.9,1.9,3.1C731.2,385.4,731.4,386.7,731.4,388.2z M729.9,388.2c0-1.3-0.2-2.6-0.6-3.6c-0.4-1.1-0.9-2-1.6-2.7
	c-0.7-0.7-1.5-1.3-2.5-1.7c-1-0.4-2-0.6-3.2-0.6c-1.1,0-2.2,0.2-3.2,0.6s-1.8,1-2.5,1.7s-1.2,1.7-1.6,2.7c-0.4,1.1-0.6,2.3-0.6,3.6
	c0,1.4,0.2,2.6,0.6,3.6c0.4,1.1,0.9,2,1.6,2.7c0.7,0.7,1.5,1.3,2.5,1.7c1,0.4,2,0.6,3.2,0.6s2.2-0.2,3.2-0.6s1.8-1,2.5-1.7
	s1.2-1.7,1.6-2.7C729.8,390.8,729.9,389.6,729.9,388.2z M736,397.9v-12.2l-1.9-0.1c-0.3,0-0.4-0.1-0.4-0.3v-0.5h2.3v-1.6
	c0-0.8,0.1-1.5,0.3-2c0.2-0.6,0.5-1.1,0.8-1.5c0.4-0.4,0.8-0.7,1.3-0.9c0.5-0.2,1.1-0.3,1.7-0.3c0.3,0,0.6,0,0.8,0.1
	c0.3,0,0.5,0.1,0.8,0.2v0.6c0,0.1-0.1,0.1-0.1,0.2c-0.1,0-0.1,0-0.3,0c-0.1,0-0.3,0-0.4,0c-0.2,0-0.4,0-0.6,0
	c-0.4,0-0.9,0.1-1.2,0.2c-0.4,0.1-0.7,0.3-1,0.6c-0.3,0.3-0.5,0.7-0.6,1.1c-0.2,0.5-0.2,1.1-0.2,1.7v1.5h7.1v-1.2
	c0-0.8,0.1-1.6,0.4-2.3c0.2-0.7,0.6-1.2,1.1-1.7s1-0.8,1.7-1.1c0.7-0.3,1.4-0.4,2.3-0.4c0.3,0,0.6,0,0.9,0.1
	c0.3,0.1,0.6,0.1,0.8,0.2l-0.1,0.7c0,0.1,0,0.1-0.1,0.1s-0.1,0-0.2,0c-0.1,0-0.3,0-0.4,0c-0.2,0-0.4,0-0.6,0c-1.4,0-2.6,0.4-3.3,1.1
	c-0.8,0.7-1.2,1.9-1.2,3.4v1.1h8v13.2h-1.3v-12.2h-6.6v12.2h-1.3v-12.2h-7v12.2L736,397.9L736,397.9z M767.4,386.1l-0.1,0.1
	c0,0-0.1,0-0.2,0c-0.1,0-0.2-0.1-0.4-0.2s-0.4-0.3-0.6-0.4c-0.3-0.1-0.6-0.3-1-0.4s-0.9-0.2-1.4-0.2c-0.8,0-1.5,0.1-2.1,0.4
	s-1.1,0.7-1.5,1.2s-0.7,1.1-1,1.9c-0.2,0.7-0.3,1.6-0.3,2.5c0,1,0.1,1.8,0.3,2.5s0.5,1.4,1,1.9c0.4,0.5,0.9,0.9,1.5,1.2
	c0.6,0.3,1.2,0.4,1.9,0.4s1.2-0.1,1.6-0.2c0.4-0.2,0.8-0.3,1.1-0.5s0.5-0.4,0.7-0.5c0.2-0.2,0.3-0.2,0.4-0.2s0.2,0,0.3,0.1l0.3,0.4
	c-0.2,0.3-0.5,0.5-0.8,0.8c-0.3,0.2-0.7,0.4-1.1,0.6c-0.4,0.2-0.8,0.3-1.3,0.4s-1,0.1-1.5,0.1c-0.9,0-1.7-0.2-2.4-0.5
	s-1.3-0.8-1.8-1.4s-0.9-1.3-1.2-2.2c-0.3-0.9-0.4-1.9-0.4-3c0-1,0.1-2,0.4-2.8c0.3-0.9,0.7-1.6,1.2-2.2s1.2-1.1,1.9-1.4
	c0.8-0.3,1.6-0.5,2.6-0.5c0.9,0,1.7,0.1,2.4,0.4s1.3,0.7,1.8,1.1L767.4,386.1z M771.3,390.6v0.3c0,1,0.1,1.9,0.4,2.7
	c0.2,0.8,0.6,1.4,1,1.9s1,0.9,1.6,1.2c0.6,0.3,1.3,0.4,2.1,0.4c0.7,0,1.3-0.1,1.8-0.2c0.5-0.2,0.9-0.3,1.3-0.5
	c0.3-0.2,0.6-0.4,0.8-0.5c0.2-0.2,0.3-0.2,0.4-0.2c0.1,0,0.2,0,0.3,0.1l0.4,0.4c-0.2,0.3-0.5,0.5-0.9,0.8c-0.4,0.2-0.8,0.4-1.2,0.6
	s-0.9,0.3-1.4,0.4s-1,0.2-1.5,0.2c-0.9,0-1.8-0.2-2.5-0.5c-0.8-0.3-1.4-0.8-2-1.4c-0.5-0.6-1-1.4-1.3-2.3s-0.4-1.9-0.4-3.1
	c0-1,0.1-1.9,0.4-2.7c0.3-0.8,0.7-1.5,1.2-2.1s1.2-1.1,1.9-1.4c0.8-0.3,1.6-0.5,2.6-0.5c0.8,0,1.5,0.1,2.1,0.4
	c0.7,0.3,1.2,0.6,1.7,1.2c0.5,0.5,0.9,1.1,1.1,1.9c0.3,0.7,0.4,1.6,0.4,2.5c0,0.2,0,0.3-0.1,0.4s-0.1,0.1-0.3,0.1L771.3,390.6
	L771.3,390.6z M780.4,389.7c0-0.7-0.1-1.4-0.3-2s-0.5-1.1-0.9-1.5s-0.8-0.7-1.3-0.9c-0.5-0.2-1.1-0.3-1.7-0.3
	c-0.7,0-1.3,0.1-1.9,0.3c-0.6,0.2-1,0.5-1.4,0.9s-0.7,0.9-1,1.5c-0.2,0.6-0.4,1.2-0.5,1.9h9V389.7z M784.8,396.8
	c0-0.2,0-0.3,0.1-0.5s0.2-0.3,0.3-0.4s0.2-0.2,0.4-0.3c0.2-0.1,0.3-0.1,0.5-0.1s0.3,0,0.5,0.1s0.3,0.2,0.4,0.3
	c0.1,0.1,0.2,0.2,0.3,0.4c0.1,0.2,0.1,0.3,0.1,0.5s0,0.3-0.1,0.5s-0.2,0.3-0.3,0.4s-0.2,0.2-0.4,0.3c-0.2,0.1-0.3,0.1-0.5,0.1
	c-0.4,0-0.7-0.1-0.9-0.4C784.9,397.5,784.8,397.2,784.8,396.8z"/>
<path d="M77.8,337.3c1.1,0,2.1,0.1,2.9,0.3c0.8,0.2,1.5,0.5,2,1c0.5,0.4,0.9,1,1.2,1.6c0.3,0.6,0.4,1.3,0.4,2.1c0,0.5-0.1,1-0.3,1.5
	c-0.2,0.5-0.4,0.9-0.8,1.3c-0.3,0.4-0.8,0.8-1.2,1.1c-0.5,0.3-1.1,0.5-1.7,0.7c1.5,0.2,2.7,0.7,3.5,1.5s1.2,1.8,1.2,3.1
	c0,0.8-0.1,1.6-0.4,2.2c-0.3,0.7-0.7,1.2-1.3,1.7c-0.6,0.5-1.3,0.8-2.1,1.1c-0.8,0.2-1.8,0.4-2.8,0.4H72v-19.6L77.8,337.3
	L77.8,337.3z M73.5,338.4v8h4.2c0.9,0,1.7-0.1,2.3-0.3c0.6-0.2,1.2-0.5,1.6-0.9s0.7-0.8,0.9-1.3c0.2-0.5,0.3-1,0.3-1.5
	c0-1.3-0.4-2.3-1.3-3c-0.8-0.7-2.1-1-3.9-1L73.5,338.4L73.5,338.4z M78.5,355.7c1.7,0,3-0.4,3.9-1.1s1.3-1.8,1.3-3.1
	c0-0.6-0.1-1.2-0.4-1.7c-0.2-0.5-0.6-0.9-1-1.3c-0.4-0.3-1-0.6-1.6-0.8c-0.6-0.2-1.4-0.3-2.2-0.3h-4.9v8.2L78.5,355.7L78.5,355.7z
	 M99.3,343.1v13.8h-0.7c-0.2,0-0.4-0.1-0.4-0.4l-0.1-2c-0.6,0.8-1.4,1.4-2.2,1.9c-0.8,0.5-1.8,0.7-2.8,0.7c-0.8,0-1.4-0.1-2-0.4
	c-0.6-0.2-1-0.6-1.4-1c-0.4-0.5-0.7-1-0.9-1.6c-0.2-0.6-0.3-1.4-0.3-2.2v-8.8h1.3v8.8c0,1.3,0.3,2.3,0.9,3s1.5,1.1,2.7,1.1
	c0.9,0,1.7-0.2,2.5-0.7s1.5-1.1,2.1-1.9v-10.3H99.3z M111.4,344.8c-0.1,0.1-0.2,0.2-0.3,0.2c-0.1,0-0.2-0.1-0.4-0.2
	c-0.2-0.1-0.4-0.2-0.6-0.4c-0.3-0.1-0.6-0.3-1-0.4s-0.9-0.2-1.4-0.2s-1,0.1-1.4,0.2s-0.8,0.3-1.1,0.6c-0.3,0.2-0.5,0.5-0.7,0.8
	s-0.2,0.7-0.2,1c0,0.4,0.1,0.8,0.3,1.1c0.2,0.3,0.5,0.5,0.9,0.7s0.8,0.4,1.2,0.5c0.5,0.1,0.9,0.3,1.4,0.4s0.9,0.3,1.4,0.5
	s0.9,0.4,1.2,0.7c0.4,0.3,0.6,0.6,0.9,1c0.2,0.4,0.3,0.9,0.3,1.4c0,0.6-0.1,1.2-0.3,1.7c-0.2,0.5-0.5,1-0.9,1.3
	c-0.4,0.4-0.9,0.7-1.5,0.9c-0.6,0.2-1.3,0.3-2.1,0.3c-1,0-1.8-0.2-2.5-0.5s-1.3-0.7-1.9-1.2l0.3-0.5c0-0.1,0.1-0.1,0.2-0.2
	c0.1,0,0.1-0.1,0.2-0.1s0.3,0.1,0.4,0.2c0.2,0.1,0.4,0.3,0.7,0.5c0.3,0.2,0.6,0.3,1.1,0.5c0.4,0.1,0.9,0.2,1.6,0.2
	c0.6,0,1.1-0.1,1.5-0.2c0.4-0.2,0.8-0.4,1.1-0.7c0.3-0.3,0.5-0.6,0.7-1s0.2-0.8,0.2-1.2c0-0.5-0.1-0.8-0.3-1.1
	c-0.2-0.3-0.5-0.6-0.9-0.8c-0.4-0.2-0.8-0.4-1.2-0.5c-0.5-0.1-0.9-0.3-1.4-0.4s-0.9-0.3-1.4-0.5s-0.9-0.4-1.2-0.7
	c-0.4-0.3-0.7-0.6-0.9-1c-0.2-0.4-0.3-0.9-0.3-1.4s0.1-1,0.3-1.4c0.2-0.5,0.5-0.8,0.9-1.2c0.4-0.3,0.9-0.6,1.4-0.8
	c0.6-0.2,1.2-0.3,1.9-0.3c0.8,0,1.6,0.1,2.2,0.4c0.7,0.2,1.2,0.6,1.8,1.1L111.4,344.8z M117.6,338.3c0,0.2,0,0.3-0.1,0.5
	c-0.1,0.1-0.2,0.3-0.3,0.4c-0.1,0.1-0.2,0.2-0.4,0.3c-0.1,0.1-0.3,0.1-0.5,0.1s-0.3,0-0.5-0.1c-0.1-0.1-0.3-0.2-0.4-0.3
	c-0.1-0.1-0.2-0.2-0.3-0.4c-0.1-0.1-0.1-0.3-0.1-0.5s0-0.3,0.1-0.5s0.2-0.3,0.3-0.4c0.1-0.1,0.2-0.2,0.4-0.3
	c0.1-0.1,0.3-0.1,0.5-0.1s0.3,0,0.5,0.1c0.1,0.1,0.3,0.2,0.4,0.3c0.1,0.1,0.2,0.2,0.3,0.4S117.6,338.2,117.6,338.3z M117.1,343.1
	v13.8h-1.3v-13.8H117.1z M123,345.5c0.6-0.8,1.4-1.4,2.2-1.9c0.8-0.5,1.8-0.7,2.8-0.7c0.8,0,1.4,0.1,2,0.4c0.6,0.2,1.1,0.6,1.4,1
	c0.4,0.5,0.7,1,0.9,1.6s0.3,1.4,0.3,2.2v8.8h-1.3v-8.8c0-1.3-0.3-2.3-0.9-3c-0.6-0.7-1.5-1.1-2.7-1.1c-0.9,0-1.7,0.2-2.5,0.7
	s-1.5,1.1-2.1,1.9v10.3h-1.3v-13.8h0.7c0.2,0,0.4,0.1,0.4,0.3L123,345.5z M137.4,349.4v0.3c0,1,0.1,1.9,0.4,2.7c0.2,0.8,0.6,1.4,1,2
	c0.4,0.5,1,0.9,1.6,1.2c0.6,0.3,1.3,0.4,2.1,0.4c0.7,0,1.3-0.1,1.8-0.2c0.5-0.2,0.9-0.3,1.3-0.5c0.3-0.2,0.6-0.4,0.8-0.5
	c0.2-0.2,0.4-0.2,0.4-0.2c0.1,0,0.2,0,0.3,0.1l0.4,0.4c-0.2,0.3-0.5,0.5-0.9,0.8c-0.4,0.2-0.8,0.4-1.2,0.6c-0.4,0.2-0.9,0.3-1.4,0.4
	s-1,0.2-1.5,0.2c-0.9,0-1.8-0.2-2.6-0.5c-0.8-0.3-1.4-0.8-2-1.4c-0.6-0.6-1-1.4-1.3-2.3s-0.4-1.9-0.4-3.1c0-1,0.1-1.9,0.4-2.7
	c0.3-0.8,0.7-1.6,1.2-2.2s1.2-1.1,2-1.4s1.6-0.5,2.6-0.5c0.8,0,1.5,0.1,2.2,0.4s1.2,0.7,1.7,1.2c0.5,0.5,0.9,1.1,1.2,1.9
	c0.3,0.7,0.4,1.6,0.4,2.6c0,0.2,0,0.3-0.1,0.4s-0.1,0.1-0.3,0.1h-10.1V349.4z M146.6,348.6c0-0.7-0.1-1.4-0.3-2s-0.5-1.1-0.9-1.5
	c-0.4-0.4-0.8-0.7-1.3-0.9c-0.5-0.2-1.1-0.3-1.7-0.3c-0.7,0-1.3,0.1-1.9,0.3c-0.6,0.2-1,0.5-1.5,1c-0.4,0.4-0.7,0.9-1,1.5
	c-0.2,0.6-0.4,1.2-0.5,2h9.1V348.6z M158.9,344.8c-0.1,0.1-0.2,0.2-0.3,0.2s-0.2-0.1-0.4-0.2s-0.4-0.2-0.6-0.4
	c-0.3-0.1-0.6-0.3-1-0.4s-0.9-0.2-1.4-0.2s-1,0.1-1.4,0.2s-0.8,0.3-1.1,0.6c-0.3,0.2-0.5,0.5-0.7,0.8s-0.2,0.7-0.2,1
	c0,0.4,0.1,0.8,0.3,1.1c0.2,0.3,0.5,0.5,0.9,0.7s0.8,0.4,1.2,0.5c0.5,0.1,0.9,0.3,1.4,0.4s0.9,0.3,1.4,0.5s0.9,0.4,1.2,0.7
	c0.4,0.3,0.6,0.6,0.9,1c0.2,0.4,0.3,0.9,0.3,1.4c0,0.6-0.1,1.2-0.3,1.7s-0.5,1-0.9,1.3c-0.4,0.4-0.9,0.7-1.5,0.9
	c-0.6,0.2-1.3,0.3-2.1,0.3c-1,0-1.8-0.2-2.5-0.5s-1.3-0.7-1.9-1.2l0.3-0.5c0-0.1,0.1-0.1,0.2-0.2c0.1,0,0.1-0.1,0.2-0.1
	c0.1,0,0.3,0.1,0.4,0.2c0.2,0.1,0.4,0.3,0.7,0.5s0.6,0.3,1.1,0.5c0.4,0.1,0.9,0.2,1.6,0.2c0.6,0,1.1-0.1,1.5-0.2
	c0.4-0.2,0.8-0.4,1.1-0.7c0.3-0.3,0.5-0.6,0.7-1s0.2-0.8,0.2-1.2c0-0.5-0.1-0.8-0.3-1.1c-0.2-0.3-0.5-0.6-0.9-0.8
	c-0.4-0.2-0.8-0.4-1.2-0.5c-0.5-0.1-0.9-0.3-1.4-0.4s-0.9-0.3-1.4-0.5s-0.9-0.4-1.2-0.7c-0.4-0.3-0.7-0.6-0.9-1s-0.3-0.9-0.3-1.4
	s0.1-1,0.3-1.4c0.2-0.5,0.5-0.8,0.9-1.2c0.4-0.3,0.9-0.6,1.4-0.8c0.6-0.2,1.2-0.3,1.9-0.3c0.8,0,1.6,0.1,2.2,0.4
	c0.7,0.2,1.2,0.6,1.8,1.1L158.9,344.8z M170.7,344.8c-0.1,0.1-0.2,0.2-0.3,0.2s-0.2-0.1-0.4-0.2s-0.4-0.2-0.6-0.4
	c-0.3-0.1-0.6-0.3-1-0.4s-0.9-0.2-1.4-0.2s-1,0.1-1.4,0.2s-0.8,0.3-1.1,0.6c-0.3,0.2-0.5,0.5-0.7,0.8s-0.2,0.7-0.2,1
	c0,0.4,0.1,0.8,0.3,1.1c0.2,0.3,0.5,0.5,0.9,0.7s0.8,0.4,1.2,0.5c0.5,0.1,0.9,0.3,1.4,0.4s0.9,0.3,1.4,0.5s0.9,0.4,1.2,0.7
	c0.4,0.3,0.6,0.6,0.9,1c0.2,0.4,0.3,0.9,0.3,1.4c0,0.6-0.1,1.2-0.3,1.7s-0.5,1-0.9,1.3c-0.4,0.4-0.9,0.7-1.5,0.9
	c-0.6,0.2-1.3,0.3-2.1,0.3c-1,0-1.8-0.2-2.5-0.5s-1.3-0.7-1.9-1.2l0.3-0.5c0-0.1,0.1-0.1,0.2-0.2c0.1,0,0.1-0.1,0.2-0.1
	c0.1,0,0.3,0.1,0.4,0.2c0.2,0.1,0.4,0.3,0.7,0.5s0.6,0.3,1.1,0.5c0.4,0.1,0.9,0.2,1.6,0.2c0.6,0,1.1-0.1,1.5-0.2
	c0.4-0.2,0.8-0.4,1.1-0.7c0.3-0.3,0.5-0.6,0.7-1s0.2-0.8,0.2-1.2c0-0.5-0.1-0.8-0.3-1.1c-0.2-0.3-0.5-0.6-0.9-0.8
	c-0.4-0.2-0.8-0.4-1.2-0.5c-0.5-0.1-0.9-0.3-1.4-0.4s-0.9-0.3-1.4-0.5s-0.9-0.4-1.2-0.7c-0.4-0.3-0.7-0.6-0.9-1s-0.3-0.9-0.3-1.4
	s0.1-1,0.3-1.4c0.2-0.5,0.5-0.8,0.9-1.2c0.4-0.3,0.9-0.6,1.4-0.8c0.6-0.2,1.2-0.3,1.9-0.3c0.8,0,1.6,0.1,2.2,0.4
	c0.7,0.2,1.2,0.6,1.8,1.1L170.7,344.8z M197,356.8h-1.1c-0.1,0-0.2,0-0.3-0.1s-0.1-0.2-0.2-0.3l-2.3-5.7h-9.6l-2.3,5.7
	c0,0.1-0.1,0.2-0.2,0.3c-0.1,0.1-0.2,0.1-0.3,0.1h-1.1l8-19.6h1.4L197,356.8z M192.7,349.7l-4-9.9c-0.1-0.3-0.3-0.7-0.4-1.2
	c-0.1,0.2-0.1,0.4-0.2,0.6c-0.1,0.2-0.1,0.4-0.2,0.5l-4,9.9h8.8V349.7z M200.8,345.5c0.6-0.8,1.4-1.4,2.2-1.9s1.8-0.7,2.8-0.7
	c0.8,0,1.4,0.1,2,0.4c0.6,0.2,1.1,0.6,1.4,1c0.4,0.5,0.7,1,0.9,1.6s0.3,1.4,0.3,2.2v8.8h-1.3v-8.8c0-1.3-0.3-2.3-0.9-3
	c-0.6-0.7-1.5-1.1-2.7-1.1c-0.9,0-1.7,0.2-2.5,0.7s-1.5,1.1-2.1,1.9v10.3h-1.3v-13.8h0.7c0.2,0,0.4,0.1,0.4,0.3L200.8,345.5z
	 M214.4,345c0.7-0.7,1.5-1.3,2.3-1.6c0.8-0.4,1.7-0.6,2.7-0.6c0.7,0,1.4,0.1,1.9,0.4c0.6,0.2,1,0.6,1.4,1s0.6,1,0.8,1.6
	s0.3,1.3,0.3,2.1v9h-0.5c-0.3,0-0.4-0.1-0.5-0.4l-0.2-1.8c-0.4,0.4-0.8,0.7-1.1,1c-0.4,0.3-0.8,0.5-1.2,0.7s-0.8,0.4-1.3,0.5
	s-1,0.2-1.5,0.2s-0.9-0.1-1.4-0.2c-0.4-0.1-0.8-0.4-1.2-0.6c-0.3-0.3-0.6-0.7-0.8-1.1s-0.3-1-0.3-1.6s0.2-1.1,0.5-1.6
	s0.9-0.9,1.6-1.3c0.7-0.4,1.6-0.7,2.7-0.9c1.1-0.2,2.4-0.4,4-0.4V348c0-1.3-0.3-2.3-0.8-2.9c-0.5-0.7-1.4-1-2.4-1
	c-0.7,0-1.2,0.1-1.7,0.3c-0.5,0.2-0.9,0.4-1.2,0.6s-0.6,0.4-0.8,0.6s-0.4,0.3-0.5,0.3s-0.2,0-0.2-0.1c-0.1,0-0.1-0.1-0.2-0.2
	L214.4,345z M222.5,350.2c-1.3,0-2.4,0.2-3.4,0.3c-0.9,0.2-1.7,0.4-2.3,0.7c-0.6,0.3-1.1,0.6-1.4,1c-0.3,0.4-0.4,0.8-0.4,1.3
	s0.1,0.9,0.2,1.2c0.2,0.3,0.4,0.6,0.6,0.8c0.3,0.2,0.5,0.4,0.9,0.5c0.3,0.1,0.7,0.2,1,0.2c0.5,0,1-0.1,1.5-0.2
	c0.4-0.1,0.9-0.3,1.2-0.5c0.4-0.2,0.7-0.5,1.1-0.7c0.3-0.3,0.7-0.6,1-0.9L222.5,350.2L222.5,350.2z M229.6,336.7v20.1h-1.3v-20.1
	H229.6z M245.4,343.1l-7.9,18.2c-0.1,0.1-0.1,0.2-0.2,0.3c-0.1,0.1-0.2,0.1-0.4,0.1H236l2.4-5.4l-5.8-13.3h1.1c0.1,0,0.2,0,0.3,0.1
	s0.1,0.1,0.2,0.2l4.6,10.7c0.1,0.1,0.1,0.3,0.1,0.4s0.1,0.3,0.1,0.4c0-0.1,0.1-0.3,0.1-0.4c0.1-0.1,0.1-0.3,0.2-0.4l4.6-10.7
	c0-0.1,0.1-0.2,0.2-0.2c0.1-0.1,0.2-0.1,0.3-0.1L245.4,343.1L245.4,343.1z M259.6,356.8h-1.3v-12.4h-8v9.3c0,0.4,0,0.7,0.1,1
	s0.2,0.5,0.4,0.7s0.4,0.3,0.6,0.4c0.2,0.1,0.5,0.1,0.7,0.1c0.3,0,0.6,0,0.9-0.1c0.2-0.1,0.4-0.2,0.6-0.3c0.2-0.1,0.3-0.2,0.4-0.3
	c0.1-0.1,0.2-0.1,0.3-0.1s0.1,0,0.2,0.1l0.4,0.6c-0.4,0.4-0.8,0.7-1.3,0.9c-0.5,0.2-1.1,0.4-1.7,0.4c-0.9,0-1.7-0.3-2.2-0.8
	s-0.8-1.3-0.8-2.4v-9.4h-2c-0.1,0-0.2,0-0.2-0.1c-0.1-0.1-0.1-0.1-0.1-0.2v-0.5l2.4-0.2l0.3-4.9c0-0.1,0.1-0.2,0.1-0.2
	c0.1-0.1,0.1-0.1,0.2-0.1h0.6v5.3h9.3v13.2H259.6z M260.2,338.2c0,0.2,0,0.3-0.1,0.5c-0.1,0.1-0.2,0.3-0.3,0.4s-0.2,0.2-0.4,0.3
	c-0.1,0.1-0.3,0.1-0.5,0.1c-0.2,0-0.3,0-0.5-0.1c-0.1-0.1-0.3-0.2-0.4-0.3c-0.1-0.1-0.2-0.2-0.3-0.4c-0.1-0.1-0.1-0.3-0.1-0.5
	s0-0.3,0.1-0.5s0.2-0.3,0.3-0.4s0.2-0.2,0.4-0.3c0.1-0.1,0.3-0.1,0.5-0.1c0.2,0,0.3,0,0.5,0.1c0.1,0.1,0.3,0.2,0.4,0.3
	c0.1,0.1,0.2,0.2,0.3,0.4C260.2,337.8,260.2,338,260.2,338.2z M273.5,344.9l-0.1,0.1c0,0-0.1,0-0.2,0c-0.1,0-0.2-0.1-0.4-0.2
	c-0.2-0.1-0.4-0.3-0.6-0.4c-0.3-0.1-0.6-0.3-1-0.4s-0.9-0.2-1.5-0.2c-0.8,0-1.5,0.1-2.1,0.4s-1.1,0.7-1.6,1.2
	c-0.4,0.5-0.7,1.2-1,1.9c-0.2,0.7-0.3,1.6-0.3,2.5c0,1,0.1,1.8,0.3,2.6c0.2,0.7,0.5,1.4,1,1.9c0.4,0.5,0.9,0.9,1.5,1.2
	c0.6,0.3,1.2,0.4,2,0.4c0.7,0,1.2-0.1,1.7-0.2c0.4-0.2,0.8-0.3,1.1-0.5c0.3-0.2,0.5-0.4,0.7-0.5c0.2-0.2,0.3-0.2,0.4-0.2
	c0.1,0,0.2,0,0.3,0.1l0.3,0.4c-0.2,0.3-0.5,0.5-0.8,0.8c-0.3,0.2-0.7,0.4-1.1,0.6c-0.4,0.2-0.8,0.3-1.3,0.4s-1,0.1-1.5,0.1
	c-0.9,0-1.7-0.2-2.4-0.5c-0.7-0.3-1.3-0.8-1.9-1.4c-0.5-0.6-0.9-1.3-1.2-2.2c-0.3-0.9-0.4-1.9-0.4-3s0.1-2,0.4-2.9
	c0.3-0.9,0.7-1.6,1.2-2.2s1.2-1.1,2-1.5c0.8-0.3,1.7-0.5,2.6-0.5c0.9,0,1.7,0.1,2.4,0.4c0.7,0.3,1.3,0.7,1.8,1.2L273.5,344.9z
	 M284.9,344.8c-0.1,0.1-0.2,0.2-0.3,0.2c-0.1,0-0.2-0.1-0.4-0.2c-0.2-0.1-0.4-0.2-0.6-0.4c-0.3-0.1-0.6-0.3-1-0.4s-0.9-0.2-1.4-0.2
	s-1,0.1-1.4,0.2s-0.8,0.3-1.1,0.6c-0.3,0.2-0.5,0.5-0.7,0.8s-0.2,0.7-0.2,1c0,0.4,0.1,0.8,0.3,1.1c0.2,0.3,0.5,0.5,0.9,0.7
	s0.8,0.4,1.2,0.5c0.5,0.1,0.9,0.3,1.4,0.4s0.9,0.3,1.4,0.5s0.9,0.4,1.2,0.7c0.4,0.3,0.6,0.6,0.9,1c0.2,0.4,0.3,0.9,0.3,1.4
	c0,0.6-0.1,1.2-0.3,1.7c-0.2,0.5-0.5,1-0.9,1.3c-0.4,0.4-0.9,0.7-1.5,0.9c-0.6,0.2-1.3,0.3-2.1,0.3c-1,0-1.8-0.2-2.5-0.5
	s-1.3-0.7-1.9-1.2l0.3-0.5c0-0.1,0.1-0.1,0.2-0.2c0.1,0,0.1-0.1,0.2-0.1s0.3,0.1,0.4,0.2c0.2,0.1,0.4,0.3,0.7,0.5
	c0.3,0.2,0.6,0.3,1.1,0.5c0.4,0.1,0.9,0.2,1.6,0.2c0.6,0,1.1-0.1,1.5-0.2c0.4-0.2,0.8-0.4,1.1-0.7c0.3-0.3,0.5-0.6,0.7-1
	s0.2-0.8,0.2-1.2c0-0.5-0.1-0.8-0.3-1.1c-0.2-0.3-0.5-0.6-0.9-0.8c-0.4-0.2-0.8-0.4-1.2-0.5c-0.5-0.1-0.9-0.3-1.4-0.4
	s-0.9-0.3-1.4-0.5s-0.9-0.4-1.2-0.7c-0.4-0.3-0.7-0.6-0.9-1c-0.2-0.4-0.3-0.9-0.3-1.4s0.1-1,0.3-1.4c0.2-0.5,0.5-0.8,0.9-1.2
	c0.4-0.3,0.9-0.6,1.4-0.8c0.6-0.2,1.2-0.3,1.9-0.3c0.8,0,1.6,0.1,2.2,0.4c0.7,0.2,1.2,0.6,1.8,1.1L284.9,344.8z M288.7,355.8
	c0-0.2,0-0.3,0.1-0.5s0.2-0.3,0.3-0.4c0.1-0.1,0.2-0.2,0.4-0.3c0.2-0.1,0.3-0.1,0.5-0.1s0.3,0,0.5,0.1s0.3,0.2,0.4,0.3
	c0.1,0.1,0.2,0.3,0.3,0.4c0.1,0.2,0.1,0.3,0.1,0.5s0,0.4-0.1,0.5c-0.1,0.2-0.2,0.3-0.3,0.4c-0.1,0.1-0.3,0.2-0.4,0.3
	c-0.2,0.1-0.3,0.1-0.5,0.1c-0.4,0-0.7-0.1-0.9-0.4C288.9,356.4,288.7,356.1,288.7,355.8z"/>
<path d="M321.2,59.2c1.1,0,2,0.1,2.9,0.3c0.8,0.2,1.5,0.5,2,1c0.5,0.4,0.9,0.9,1.2,1.5c0.3,0.6,0.4,1.3,0.4,2.1c0,0.5-0.1,1-0.3,1.5
	c-0.2,0.5-0.4,0.9-0.8,1.3c-0.3,0.4-0.7,0.7-1.2,1c-0.5,0.3-1,0.5-1.7,0.7c1.5,0.2,2.7,0.7,3.5,1.5s1.2,1.8,1.2,3.1
	c0,0.8-0.1,1.5-0.4,2.2s-0.7,1.2-1.3,1.7c-0.6,0.5-1.2,0.8-2,1s-1.7,0.4-2.7,0.4h-6.2V59.2H321.2z M317.1,60.3v7.9h4.2
	c0.9,0,1.6-0.1,2.3-0.3c0.6-0.2,1.1-0.5,1.5-0.9s0.7-0.8,0.9-1.3c0.2-0.5,0.3-1,0.3-1.5c0-1.3-0.4-2.3-1.2-2.9c-0.8-0.7-2.1-1-3.8-1
	H317.1z M321.9,77.3c1.7,0,3-0.4,3.8-1.1c0.9-0.7,1.3-1.8,1.3-3.1c0-0.6-0.1-1.2-0.3-1.6c-0.2-0.5-0.6-0.9-1-1.2
	c-0.4-0.3-1-0.6-1.6-0.8s-1.4-0.3-2.2-0.3h-4.8v8.1C317.1,77.3,321.9,77.3,321.9,77.3z M331.6,66.9c0.7-0.7,1.5-1.2,2.2-1.6
	c0.8-0.4,1.7-0.5,2.7-0.5c0.7,0,1.4,0.1,1.9,0.3c0.5,0.2,1,0.6,1.4,1s0.6,1,0.8,1.6c0.2,0.6,0.3,1.3,0.3,2v8.8h-0.5
	c-0.3,0-0.4-0.1-0.5-0.4l-0.2-1.7c-0.4,0.4-0.7,0.7-1.1,1s-0.8,0.5-1.1,0.7c-0.4,0.2-0.8,0.4-1.3,0.5s-1,0.2-1.5,0.2
	s-0.9-0.1-1.3-0.2s-0.8-0.3-1.2-0.6c-0.3-0.3-0.6-0.6-0.8-1.1c-0.2-0.4-0.3-1-0.3-1.6s0.2-1.1,0.5-1.6s0.8-0.9,1.5-1.3
	s1.6-0.7,2.7-0.9c1.1-0.2,2.4-0.3,3.9-0.4v-1.4c0-1.3-0.3-2.2-0.8-2.9c-0.5-0.7-1.3-1-2.4-1c-0.7,0-1.2,0.1-1.7,0.3
	c-0.5,0.2-0.8,0.4-1.2,0.6c-0.3,0.2-0.6,0.4-0.8,0.6c-0.2,0.2-0.4,0.3-0.5,0.3s-0.2,0-0.2-0.1c-0.1,0-0.1-0.1-0.2-0.2L331.6,66.9z
	 M339.6,71.9c-1.3,0-2.4,0.1-3.3,0.3c-0.9,0.2-1.7,0.4-2.3,0.6c-0.6,0.3-1,0.6-1.3,1s-0.4,0.8-0.4,1.3s0.1,0.8,0.2,1.2
	c0.1,0.3,0.3,0.6,0.6,0.8c0.2,0.2,0.5,0.4,0.9,0.5c0.3,0.1,0.7,0.1,1,0.1c0.5,0,1-0.1,1.4-0.2s0.8-0.3,1.2-0.5
	c0.4-0.2,0.7-0.4,1.1-0.7c0.3-0.3,0.6-0.6,1-0.9v-3.5H339.6z M354.3,66.7l-0.1,0.1c0,0-0.1,0-0.2,0s-0.2-0.1-0.4-0.2
	c-0.2-0.1-0.4-0.3-0.6-0.4c-0.3-0.1-0.6-0.3-1-0.4s-0.9-0.2-1.4-0.2c-0.8,0-1.5,0.1-2.1,0.4s-1.1,0.7-1.5,1.2s-0.7,1.1-0.9,1.9
	c-0.2,0.7-0.3,1.6-0.3,2.5c0,1,0.1,1.8,0.3,2.5c0.2,0.7,0.5,1.4,0.9,1.9s0.9,0.9,1.5,1.1c0.6,0.3,1.2,0.4,1.9,0.4
	c0.7,0,1.2-0.1,1.6-0.2c0.4-0.2,0.8-0.3,1.1-0.5c0.3-0.2,0.5-0.3,0.7-0.5s0.3-0.2,0.4-0.2s0.2,0,0.3,0.1l0.3,0.4
	c-0.2,0.3-0.5,0.5-0.8,0.8c-0.3,0.2-0.7,0.4-1.1,0.6s-0.8,0.3-1.3,0.4s-1,0.1-1.5,0.1c-0.9,0-1.6-0.2-2.4-0.5
	c-0.7-0.3-1.3-0.8-1.8-1.4s-0.9-1.3-1.2-2.2c-0.3-0.9-0.4-1.8-0.4-2.9c0-1,0.1-2,0.4-2.8c0.3-0.9,0.7-1.6,1.2-2.2s1.2-1.1,1.9-1.4
	c0.8-0.3,1.6-0.5,2.6-0.5c0.9,0,1.7,0.1,2.3,0.4c0.7,0.3,1.3,0.7,1.8,1.1L354.3,66.7z M359.3,58.7v12.1h0.6c0.1,0,0.2,0,0.4-0.1
	c0.1,0,0.2-0.1,0.4-0.3l5.4-5.2c0.1-0.1,0.2-0.2,0.3-0.3c0.1-0.1,0.2-0.1,0.4-0.1h1.1l-6,5.7c-0.2,0.2-0.3,0.3-0.5,0.4
	c0.1,0.1,0.3,0.2,0.4,0.3c0.1,0.1,0.2,0.2,0.3,0.3l6.3,6.8h-1.1c-0.1,0-0.2,0-0.3-0.1c-0.1,0-0.2-0.1-0.3-0.3l-5.7-6.1
	c-0.1-0.1-0.1-0.1-0.2-0.2s-0.1-0.1-0.2-0.1s-0.2-0.1-0.3-0.1c-0.1,0-0.2,0-0.3,0h-0.6v6.8h-1.3V58.7H359.3z M388,68.8
	c0,1.5-0.2,2.8-0.7,4c-0.4,1.2-1.1,2.2-1.9,3.1s-1.8,1.5-2.9,2s-2.4,0.7-3.7,0.7c-1.4,0-2.6-0.2-3.7-0.7s-2.1-1.1-2.9-2
	s-1.4-1.9-1.9-3.1c-0.4-1.2-0.7-2.6-0.7-4c0-1.5,0.2-2.8,0.7-4c0.4-1.2,1.1-2.2,1.9-3.1c0.8-0.9,1.8-1.5,2.9-2s2.4-0.7,3.7-0.7
	c1.4,0,2.6,0.2,3.7,0.7s2.1,1.1,2.9,2s1.4,1.9,1.9,3.1C387.8,66,388,67.4,388,68.8z M386.6,68.8c0-1.3-0.2-2.5-0.6-3.6
	s-0.9-2-1.6-2.7s-1.5-1.3-2.4-1.7c-1-0.4-2-0.6-3.2-0.6c-1.1,0-2.2,0.2-3.1,0.6c-1,0.4-1.8,1-2.5,1.7s-1.2,1.6-1.6,2.7
	c-0.4,1.1-0.6,2.3-0.6,3.6c0,1.4,0.2,2.6,0.6,3.6c0.4,1.1,0.9,2,1.6,2.7s1.5,1.3,2.5,1.7c1,0.4,2,0.6,3.1,0.6c1.2,0,2.2-0.2,3.2-0.6
	s1.8-1,2.4-1.7c0.7-0.7,1.2-1.6,1.6-2.7C386.4,71.4,386.6,70.2,386.6,68.8z M392.6,78.5V66.3l-1.9-0.1c-0.3,0-0.4-0.1-0.4-0.3v-0.5
	h2.3v-1.5c0-0.8,0.1-1.4,0.3-2c0.2-0.6,0.5-1.1,0.8-1.5c0.4-0.4,0.8-0.7,1.3-0.9s1.1-0.3,1.7-0.3c0.3,0,0.6,0,0.8,0.1
	c0.3,0,0.5,0.1,0.8,0.2v0.6c0,0.1-0.1,0.1-0.1,0.1c-0.1,0-0.1,0-0.3,0c-0.1,0-0.3,0-0.4,0c-0.2,0-0.4,0-0.6,0
	c-0.4,0-0.9,0.1-1.2,0.2c-0.4,0.1-0.7,0.3-1,0.6s-0.5,0.7-0.6,1.1c-0.1,0.5-0.2,1-0.2,1.7v1.6h7v-1.2c0-0.8,0.1-1.6,0.4-2.3
	s0.6-1.2,1.1-1.7s1-0.8,1.7-1.1c0.7-0.2,1.4-0.4,2.3-0.4c0.3,0,0.6,0,0.9,0.1c0.3,0,0.6,0.1,0.8,0.2l-0.1,0.7c0,0.1,0,0.1-0.1,0.1
	s-0.1,0-0.2,0s-0.2,0-0.4,0c-0.2,0-0.4,0-0.6,0c-1.4,0-2.5,0.4-3.3,1.1c-0.8,0.7-1.2,1.9-1.2,3.4v1.1h7.9v13.1h-1.3V66.3h-6.6v12.1
	h-1.3V66.3h-7v12.1L392.6,78.5L392.6,78.5z M423.8,66.7l-0.1,0.1c0,0-0.1,0-0.2,0s-0.2-0.1-0.4-0.2c-0.2-0.1-0.4-0.3-0.6-0.4
	c-0.3-0.1-0.6-0.3-1-0.4s-0.9-0.2-1.4-0.2c-0.8,0-1.5,0.1-2.1,0.4s-1.1,0.7-1.5,1.2s-0.7,1.1-0.9,1.9c-0.2,0.7-0.3,1.6-0.3,2.5
	c0,1,0.1,1.8,0.3,2.5c0.2,0.7,0.5,1.4,0.9,1.9s0.9,0.9,1.5,1.1c0.6,0.3,1.2,0.4,1.9,0.4c0.7,0,1.2-0.1,1.6-0.2
	c0.4-0.2,0.8-0.3,1.1-0.5c0.3-0.2,0.5-0.3,0.7-0.5s0.3-0.2,0.4-0.2s0.2,0,0.3,0.1l0.3,0.4c-0.2,0.3-0.5,0.5-0.8,0.8
	c-0.3,0.2-0.7,0.4-1.1,0.6s-0.8,0.3-1.3,0.4s-1,0.1-1.5,0.1c-0.9,0-1.6-0.2-2.4-0.5c-0.7-0.3-1.3-0.8-1.8-1.4s-0.9-1.3-1.2-2.2
	c-0.3-0.9-0.4-1.8-0.4-2.9c0-1,0.1-2,0.4-2.8c0.3-0.9,0.7-1.6,1.2-2.2s1.2-1.1,1.9-1.4c0.8-0.3,1.6-0.5,2.6-0.5
	c0.9,0,1.7,0.1,2.3,0.4c0.7,0.3,1.3,0.7,1.8,1.1L423.8,66.7z M427.7,71.2v0.2c0,1,0.1,1.9,0.4,2.7c0.2,0.8,0.6,1.4,1,1.9
	s1,0.9,1.6,1.2c0.6,0.3,1.3,0.4,2.1,0.4c0.7,0,1.3-0.1,1.8-0.2s0.9-0.3,1.3-0.5c0.3-0.2,0.6-0.4,0.8-0.5c0.2-0.1,0.3-0.2,0.4-0.2
	s0.2,0,0.3,0.1l0.4,0.4c-0.2,0.3-0.5,0.5-0.9,0.8c-0.4,0.2-0.8,0.4-1.2,0.6c-0.4,0.2-0.9,0.3-1.4,0.4s-1,0.1-1.5,0.1
	c-0.9,0-1.8-0.2-2.5-0.5c-0.8-0.3-1.4-0.8-2-1.4c-0.5-0.6-1-1.4-1.3-2.3s-0.4-1.9-0.4-3.1c0-1,0.1-1.9,0.4-2.7
	c0.3-0.8,0.7-1.5,1.2-2.1s1.2-1.1,1.9-1.4c0.8-0.3,1.6-0.5,2.6-0.5c0.8,0,1.5,0.1,2.1,0.4c0.7,0.3,1.2,0.6,1.7,1.1s0.9,1.1,1.1,1.9
	c0.3,0.7,0.4,1.6,0.4,2.5c0,0.2,0,0.3-0.1,0.4s-0.1,0.1-0.3,0.1h-9.9V71.2z M436.7,70.3c0-0.7-0.1-1.4-0.3-2
	c-0.2-0.6-0.5-1.1-0.9-1.5s-0.8-0.7-1.3-0.9c-0.5-0.2-1.1-0.3-1.7-0.3c-0.7,0-1.3,0.1-1.9,0.3c-0.6,0.2-1,0.5-1.4,0.9
	s-0.7,0.9-1,1.5c-0.2,0.6-0.4,1.2-0.5,1.9L436.7,70.3L436.7,70.3z M441.1,77.4c0-0.2,0-0.3,0.1-0.5s0.2-0.3,0.3-0.4
	c0.1-0.1,0.2-0.2,0.4-0.3c0.1-0.1,0.3-0.1,0.5-0.1s0.3,0,0.5,0.1s0.3,0.2,0.4,0.3c0.1,0.1,0.2,0.2,0.3,0.4c0.1,0.2,0.1,0.3,0.1,0.5
	s0,0.3-0.1,0.5c-0.1,0.1-0.2,0.3-0.3,0.4c-0.1,0.1-0.2,0.2-0.4,0.3c-0.2,0.1-0.3,0.1-0.5,0.1c-0.4,0-0.7-0.1-0.9-0.4
	C441.2,78.1,441.1,77.8,441.1,77.4z"/>
<g>
	<g>
		<path class="st3" d="M570.3,118.6c-2.9,2.3-7.1,1.8-9.4-1c-2.3-2.9-1.8-7.1,1-9.4c2.9-2.3,7.1-1.8,9.4,1
			C573.6,112,573.1,116.2,570.3,118.6z M576.4,119.4c0.3-0.7,0.7-1.4,1-2.1l4.4,0.5c0.1-0.3,0.1-0.4,0.2-0.7c0.3-1.3,0.4-2.6,0.4-4
			l-1.6-0.2l-2.8-0.3c-0.1-1.5-0.4-2.9-1.1-4.3l3.5-2.8c-0.4-0.8-1-1.6-1.6-2.4c-0.4-0.5-0.9-1-1.3-1.4l-3.5,2.8
			c-1.2-1-2.5-1.9-4-2.4l0.5-4.4c-1.6-0.4-3.1-0.6-4.7-0.6l-0.5,4.4c-1.7,0.1-3.2,0.5-4.7,1.3l-2.8-3.5c-0.7,0.4-1.4,0.9-2,1.4
			c-0.6,0.5-1.2,1-1.7,1.6l2.8,3.5c-1.1,1.3-1.8,2.8-2.4,4.4l-4.4-0.7c-0.3,1.6-0.5,3.1-0.4,4.7l4.4,0.5c0.2,1.6,0.7,3.1,1.5,4.5
			l-3.5,2.8c0.3,0.5,0.7,1,1.1,1.6c0.6,0.8,1.2,1.4,1.9,2l3.5-2.8c1.2,1,2.6,1.7,4,2l-0.5,4.4c1.6,0.3,3.1,0.5,4.7,0.4l0.5-4.4
			c1-0.1,2.1-0.4,3.1-0.8 M578.9,132.7l2.2,4.9l-1.8,0.8l-2.1-4.8l-3.1,3v-13.7c3,3,9.2,9.1,9.2,9.1L578.9,132.7z M479.2,63.4
			c0-0.1,0-0.3,0.1-0.3c0.1-0.1,0.1-0.2,0.2-0.3c0.1-0.1,0.2-0.2,0.3-0.2c0.1-0.1,0.3-0.1,0.3-0.1c0.1,0,0.3,0,0.3,0.1
			c0.1,0.1,0.2,0.1,0.3,0.2c0.1,0.1,0.2,0.2,0.2,0.3c0.1,0.1,0.1,0.3,0.1,0.3s0,0.3-0.1,0.3c-0.1,0.1-0.1,0.2-0.2,0.3
			c-0.1,0.1-0.2,0.2-0.3,0.2c-0.1,0.1-0.2,0.1-0.3,0.1c-0.1,0-0.3,0-0.3-0.1c-0.1-0.1-0.2-0.1-0.3-0.2s-0.2-0.2-0.2-0.3
			C479.2,63.7,479.2,63.6,479.2,63.4z M480.7,42.2l14,24.5c0.3,0.5-0.1,1.1-0.6,1.1H466c-0.5,0-0.9-0.6-0.6-1.1l14.1-24.5
			C479.7,41.7,480.4,41.7,480.7,42.2z M508.1,67.1c1.1,0.3,2.4-0.2,2.7-1.3l-4.1-1.4C506.4,65.5,507,66.7,508.1,67.1z M524.3,54.7
			c1.1-3.3-0.3-6.9-3.1-8.6l0.7-1.9c0.3-0.8-0.2-1.7-1-1.9c-0.8-0.3-1.7,0.2-1.9,1l-0.7,1.9c-3.3-0.4-6.6,1.6-7.8,4.9
			c-3.5,10-6,9.7-6,9.7l-0.6,1.7l8.2,2.8l2.2,0.8l8.2,2.8l0.6-1.7C523.2,66,521.1,64.1,524.3,54.7z M590.6,167.4h-51.5 M537.2,69.2
			h0.8c13.5,0,27,0,40.5,0 M504.2,81.5c0,0.1,0,53.3,0,53.4c0,4.6-0.1,9.3,0,13.9c0,2.4,1,4.4,3.1,5.8c1.3,0.9,2.7,1,4.3,1
			c35.9,0,71.8,0,107.7,0c0.4,0,0.8,0,1.2-0.1c2.4-0.3,4.1-1.3,5.3-3.4c0.8-1.3,1-2.8,1-4.3c0-3.9,0-14,0-25 M626.7,91.1v-3
			 M741.8,85.5H581.1V48.5h160.6V85.5z M535.5,46.8V79h-81.2V31h67.1 M644.9,94.5l-18.7,15.2l-18.7-15.2 M644.9,120.5h-37.5V94.6
			h37.5V120.5z"/>
	</g>
	<g>
		<path class="st4" d="M592.8,58.7l-0.2,0.8h-1.5l-1.6,4.6c-0.5,1.6-1.1,2.3-2.4,2.3h-0.7l0.2-0.8h0.5c0.9,0,1.1-0.2,1.6-1.6
			l1.5-4.5h-1.4l0.2-0.8h1.5l0.3-0.8c0.6-1.7,1.3-2.3,2.5-2.3h0.6l-0.2,0.8H593c-0.7,0-1,0.3-1.5,1.8l-0.2,0.4H592.8z"/>
	</g>
	<g>
		<path class="st4" d="M596.9,63.2c0.2-0.6-0.2-1-0.7-1s-1,0.3-1.5,0.4v-0.7c0.5-0.2,1-0.3,1.7-0.3c1,0,1.5,0.9,1.3,1.7l-0.5,2.4
			c-0.1,0.5-0.2,1-0.1,1.5l-0.7,0.1l-0.1-0.7c-0.4,0.4-1,0.7-1.5,0.7c-1,0-1.5-0.8-1.2-1.8c0.3-1,1-2,2.2-2c0.4,0,0.8,0.1,1,0.3
			L596.9,63.2z M596.7,64.4c-0.3-0.2-0.6-0.3-1-0.3c-0.8,0-1.2,0.7-1.4,1.4c-0.1,0.5,0,1.1,0.6,1.1c0.6,0,1-0.5,1.5-1L596.7,64.4z"
			/>
		<path class="st4" d="M600.7,67.5c0.3-0.1,0.5-0.2,0.7-0.3c-0.3,0-0.6-0.3-0.5-0.7c0.1-0.4,0.5-0.8,1-0.8c0.5,0,0.8,0.4,0.6,1
			c-0.2,0.9-1.2,1.4-2,1.6L600.7,67.5z"/>
		<path class="st4" d="M615.4,63.2c0.2-0.6-0.2-1-0.7-1c-0.5,0-1,0.3-1.5,0.4v-0.7c0.5-0.2,1-0.3,1.7-0.3c1,0,1.5,0.9,1.3,1.7
			l-0.5,2.4c-0.1,0.5-0.2,1-0.1,1.5l-0.7,0.1l-0.1-0.7c-0.4,0.4-1,0.7-1.5,0.7c-1,0-1.5-0.8-1.2-1.8c0.3-1,1-2,2.2-2
			c0.4,0,0.8,0.1,1,0.3L615.4,63.2z M615.1,64.4c-0.3-0.2-0.6-0.3-1-0.3c-0.8,0-1.2,0.7-1.4,1.4c-0.1,0.5,0,1.1,0.6,1.1s1-0.5,1.5-1
			L615.1,64.4z"/>
	</g>
	<g>
		<path class="st4" d="M617.4,60.2l-0.1,0.4h-2.9l0.1-0.3c0.3-1.1,0.8-1.7,1.7-2.4c0.5-0.3,1.2-0.9,1.4-1.5c0.1-0.5-0.1-0.8-0.6-0.8
			c-0.6,0-1,0.5-1.1,1h-0.5c0.3-0.9,0.9-1.6,1.8-1.6c0.8,0,1.2,0.4,1,1.2c-0.2,0.8-0.9,1.2-1.5,1.7l-0.4,0.3c-0.5,0.4-1,0.9-1.1,1.5
			h2.2V60.2z"/>
	</g>
	<g>
		<path class="st4" d="M621.9,65.7c-1.5-1-1.8-3.1-1.4-5.1c0.4-1.9,1.6-3.9,3.5-5.1l0.3,0.6c-1.7,1-2.5,2.7-2.9,4.4
			c-0.3,1.7-0.2,3.4,1,4.4L621.9,65.7z"/>
		<path class="st4" d="M630.4,59.2c0.6,0.5,1.6,1.1,1.4,2.2c-0.2,0.6-0.6,1-1.1,1.3c0.2,0.3,0.3,0.6,0.2,1c-0.3,1.1-1.2,1.7-2.4,1.7
			c-1.1,0-2.1-0.6-1.6-2.2h0.9c-0.3,0.8-0.1,1.4,0.8,1.4c0.5,0,1.1-0.3,1.2-0.9c0.2-0.6-0.3-0.9-0.7-1.2l-0.6-0.5
			c-0.6-0.5-1.6-1.2-1.4-2.2c0.2-0.6,0.6-1,1.1-1.3c-0.2-0.3-0.3-0.6-0.2-1c0.3-1.1,1.2-1.7,2.3-1.7c1.1,0,2.1,0.6,1.6,2.2H631
			c0.3-0.8,0.1-1.4-0.8-1.4c-0.5,0-1.1,0.3-1.2,0.9c-0.1,0.6,0.3,0.9,0.7,1.2L630.4,59.2z M628.7,59c-0.3,0.2-0.6,0.4-0.7,0.8
			c-0.1,0.3,0.1,0.5,0.3,0.8l1.8,1.7c0.3-0.2,0.6-0.4,0.7-0.8s-0.1-0.5-0.3-0.8L628.7,59z"/>
		<path class="st4" d="M637,55.7c1.5,1.1,1.8,3.1,1.4,5.1c-0.4,1.9-1.7,3.9-3.6,5.1l-0.3-0.6c1.7-1,2.5-2.7,3-4.4
			c0.3-1.7,0.2-3.4-1-4.4L637,55.7z"/>
		<path class="st4" d="M643.7,63.1c0.5,0,0.9,0.4,0.8,1c-0.1,0.5-0.7,1-1.2,1c-0.5,0-0.9-0.4-0.8-1
			C642.6,63.4,643.2,63.1,643.7,63.1z M644.6,58.9c0.5,0,0.9,0.4,0.8,1c-0.1,0.5-0.7,1-1.2,1s-0.9-0.4-0.8-1
			C643.5,59.3,644,58.9,644.6,58.9z"/>
		<path class="st4" d="M647.9,60.7L648,60h7.4l-0.2,0.8H647.9z"/>
		<path class="st4" d="M668.8,58.7l-0.2,0.8h-1.5l-1.6,4.6c-0.5,1.6-1.1,2.3-2.4,2.3h-0.6l0.2-0.8h0.5c0.9,0,1.1-0.2,1.6-1.6
			l1.6-4.5h-1.4l0.2-0.8h1.5l0.3-0.8c0.6-1.7,1.3-2.3,2.5-2.3h0.6l-0.2,0.8h-0.7c-0.7,0-1,0.3-1.5,1.8l-0.2,0.4H668.8z"/>
		<path class="st4" d="M673.6,65.7c-1.5-1-1.8-3.1-1.4-5.1c0.4-1.9,1.6-3.9,3.5-5.1l0.3,0.6c-1.7,1-2.5,2.7-2.9,4.4
			c-0.3,1.7-0.2,3.4,1,4.4L673.6,65.7z"/>
		<path class="st4" d="M681.5,61.3l1.8,3.6h-1.1l-1.3-2.9l-2.5,2.9h-1.1l3.3-3.5l-1.5-3h1l1,2.4l2-2.4h1L681.5,61.3z"/>
		<path class="st4" d="M686.6,65.4c0.3-0.1,0.6-0.2,0.9-0.4c-0.4,0-0.7-0.3-0.6-0.9c0.1-0.5,0.6-1,1.2-1s0.9,0.5,0.8,1.1
			c-0.3,1-1.4,1.7-2.4,1.9L686.6,65.4z"/>
		<path class="st4" d="M697,60.1c0.2-0.7-0.2-1.2-0.9-1.2c-0.6,0-1.2,0.3-1.7,0.5v-0.8c0.7-0.3,1.3-0.4,2-0.4c1.2,0,1.8,1,1.6,2.1
			l-0.6,2.9c-0.1,0.6-0.2,1.2-0.1,1.7l-0.9,0.1l-0.1-0.8c-0.5,0.5-1.1,0.8-1.8,0.8c-1.2,0-1.7-1-1.5-2.2c0.3-1.3,1.3-2.4,2.6-2.4
			c0.5,0,1,0.2,1.3,0.3L697,60.1z M696.6,61.5c-0.3-0.2-0.8-0.3-1.2-0.3c-1,0-1.5,0.8-1.7,1.7c-0.2,0.6,0,1.3,0.8,1.3
			c0.7,0,1.3-0.6,1.7-1.1L696.6,61.5z"/>
		<path class="st4" d="M703.4,55.7c1.5,1.1,1.8,3.1,1.4,5.1s-1.7,3.9-3.6,5.1l-0.3-0.6c1.7-1,2.5-2.7,3-4.4c0.3-1.7,0.2-3.4-1-4.4
			L703.4,55.7z"/>
		<path class="st4" d="M714,60h-6.8v-0.8h6.8V60z M714,61.5h-6.8v-0.8h6.8V61.5z"/>
		<path class="st4" d="M728.2,55.9h0.9l-1.9,8.9h-1l1.4-6.7l0,0l-2.7,4.4l-0.9-4.4l0,0l-1.4,6.7h-0.9l1.9-8.9h0.9l1,4.4L728.2,55.9z
			"/>
	</g>
	<g>
		<path class="st4" d="M592.8,73.5l-0.2,0.8h-1.5l-1.6,4.6c-0.5,1.6-1.1,2.3-2.4,2.3h-0.7l0.2-0.8h0.5c0.9,0,1.1-0.2,1.6-1.6
			l1.5-4.5h-1.4l0.2-0.8h1.5l0.3-0.8c0.6-1.7,1.3-2.3,2.5-2.3h0.6l-0.2,0.8H593c-0.7,0-1,0.3-1.5,1.8l-0.2,0.4H592.8z"/>
		<path class="st4" d="M601.5,71.4H599l-1.7,8.1h-1l1.7-8.1h-2.4l0.2-0.8h5.9L601.5,71.4z"/>
		<path class="st4" d="M604.9,80.5c-1.5-1-1.8-3.1-1.4-5.1c0.4-1.9,1.6-3.9,3.5-5.1l0.3,0.6c-1.7,1-2.5,2.7-2.9,4.4
			c-0.3,1.7-0.2,3.4,1,4.4L604.9,80.5z"/>
		<path class="st4" d="M612.8,76l1.8,3.6h-1.1l-1.3-2.9l-2.5,2.9h-1.2l3.3-3.5l-1.5-3h1l1,2.4l2-2.4h1L612.8,76z"/>
		<path class="st4" d="M620,70.4c1.5,1.1,1.8,3.1,1.4,5.1c-0.4,1.9-1.7,3.9-3.6,5.1l-0.3-0.6c1.7-1,2.5-2.7,3-4.4
			c0.3-1.7,0.2-3.4-1-4.4L620,70.4z"/>
		<path class="st4" d="M626.3,74.1c0.5,0,1,0.4,1,1s-0.4,1-1,1c-0.5,0-1-0.4-1-1C625.3,74.6,625.8,74.1,626.3,74.1z"/>
		<path class="st4" d="M630.9,75.5l0.2-0.8h7.4l-0.2,0.8H630.9z"/>
		<path class="st4" d="M651.9,73.5l-0.2,0.8h-1.5l-1.6,4.6c-0.5,1.6-1.1,2.3-2.4,2.3h-0.7l0.2-0.8h0.5c0.9,0,1.1-0.2,1.6-1.6
			l1.5-4.5h-1.4l0.2-0.8h1.5l0.3-0.8c0.6-1.7,1.3-2.3,2.5-2.3h0.6l-0.2,0.8H652c-0.7,0-1,0.3-1.5,1.8l-0.2,0.4H651.9z"/>
		<path class="st4" d="M656.6,80.5c-1.5-1-1.8-3.1-1.4-5.1c0.4-1.9,1.6-3.9,3.5-5.1L659,71c-1.7,1-2.5,2.7-2.9,4.4
			c-0.3,1.7-0.2,3.4,1,4.4L656.6,80.5z"/>
		<path class="st4" d="M664.5,76l1.8,3.6h-1.2l-1.3-2.9l-2.5,2.9h-1.1l3.3-3.5l-1.5-3h1l1,2.4l2-2.4h1L664.5,76z"/>
		<path d="M669.6,80.1c0.3-0.1,0.6-0.2,0.9-0.4c-0.4,0-0.7-0.3-0.6-0.9s0.6-1,1.2-1s0.9,0.5,0.8,1.1c-0.3,1-1.4,1.7-2.4,1.9
			L669.6,80.1z"/>
		<path class="st4" d="M681.9,70.6l0.6,0.4l-0.7,1c0.3,1,0.1,2.1-0.2,3.1c-0.3,1.7-1.1,4.6-3.7,4.6c-0.7,0-1.2-0.3-1.6-0.7l-0.7,0.9
			l-0.6-0.4l1-1.2c-0.3-1,0-2.1,0.2-3.1c0.2-0.8,0.8-4.6,3.7-4.6c0.6,0,1.2,0.3,1.6,0.7L681.9,70.6z M680.9,72.1
			c-0.2-0.4-0.6-0.8-1.1-0.8c-1,0-1.9,0.6-2.6,3.8c-0.2,0.7-0.3,1.4-0.3,2.1L680.9,72.1z M677,78.2c0.2,0.4,0.5,0.8,1.1,0.8
			c0.9,0,1.9-0.5,2.6-3.8c0.2-0.7,0.3-1.4,0.3-2.1L677,78.2z"/>
		<path class="st4" d="M686.4,70.4c1.5,1.1,1.8,3.1,1.4,5.1c-0.4,1.9-1.7,3.9-3.6,5.1l-0.3-0.6c1.7-1,2.5-2.7,3-4.4
			c0.3-1.7,0.2-3.4-1-4.4L686.4,70.4z"/>
		<path class="st4" d="M694.4,79.6l-0.1-0.7c-0.6,0.5-1,0.7-1.7,0.7c-1.1,0-2.4-0.9-1.9-3.5c0.5-2.5,2.4-3.4,3.4-3.4
			c0.5,0,0.9,0.2,1.3,0.3l0.6-2.8h1l-1.5,6.8c-0.2,0.8-0.3,1.7-0.2,2.4L694.4,79.6z M695.2,74.1c-0.3-0.3-0.6-0.5-1.1-0.5
			c-1,0-2.1,0.8-2.4,2.6c-0.4,2.2,0.5,2.6,1.1,2.6c0.7,0,1.3-0.5,1.7-1.1L695.2,74.1z"/>
		<path class="st4" d="M701.3,76l1.8,3.6H702l-1.3-2.9l-2.5,2.9h-1.1l3.3-3.5l-1.5-3h1l1,2.4l2-2.4h1L701.3,76z"/>
		<path class="st4" d="M711.7,74.8h-6.8V74h6.8V74.8z M711.7,76.2h-6.8v-0.8h6.8V76.2z"/>
		<path class="st4" d="M726,70.7h0.9l-1.9,8.9h-1l1.4-6.7l0,0l-2.7,4.4l-0.9-4.4l0,0l-1.4,6.7h-1l1.9-8.9h0.9l1,4.4L726,70.7z"/>
	</g>
	<g>
		<path class="st3" d="M564.9,15.7h10 M590.4,15.7h9.8 M565.5,13.4l-2.3,2.3l2.3,2.3 M599.3,18.1l2.3-2.3l-2.3-2.3 M561.3,12.2v14.6
			 M603.5,12.2v14.6 M595.3,33.7V30 M586.9,33.7V30 M578.4,33.7V30 M570,33.7V30 M565.8,29.9v6.8 M599.4,36.7v-6.8 M591.1,36.7v-6.8
			 M582.6,36.7v-6.8 M574.3,36.7v-6.8 M603.5,43.9h-42.3V29.8h42.3V43.9z M497.8,93.4h-33.6 M488.1,110.5h-3.3v-3.3h3.3V110.5z
			 M488.1,104.9h-3.3v-3.3h3.3V104.9z M488.1,99.2h-3.3v-3.3h3.3V99.2z M493.7,110.5h-3.3v-3.3h3.3V110.5z M493.7,104.9h-3.3v-3.3
			h3.3V104.9z M493.7,99.2h-3.3v-3.3h3.3V99.2z M471.3,110.5H468v-3.3h3.3V110.5z M471.3,104.9H468v-3.3h3.3V104.9z M471.3,99.2H468
			v-3.3h3.3V99.2z M476.9,110.5h-3.3v-3.3h3.3V110.5z M476.9,104.9h-3.3v-3.3h3.3V104.9z M476.9,99.2h-3.3v-3.3h3.3V99.2z
			 M482.4,110.5h-3.3v-3.3h3.3V110.5z M482.4,104.9h-3.3v-3.3h3.3V104.9z M482.4,99.2h-3.3v-3.3h3.3V99.2z M466.8,113.9
			c-1.7,0-3-1.4-3-3V91.4c0-1.7,1.4-3,3-3h28.3c1.7,0,3,1.4,3,3v19.4c0,0.9-0.9,3-3,3H466.8z M492.7,85.5V91 M469.4,85.5V91
			 M619.4,17.5l-1.3,1.4 M621.8,20l-1.4,1.4 M624.3,22.4l-1.4,1.4 M626.7,24.8l-1.4,1.4 M634,32.1l-1.4,1.4 M636.5,34.5l-1.4,1.4
			 M638.8,37l-1.4,1.4 M641.2,39.4l-1.4,1.4 M627.2,28.1l-12.8-12.8l3.6-3.6l12.8,12.8 M634.3,28.1l12.8,12.8l-3.6,3.6l-12.8-12.8
			 M617.9,42.1l-1.1-1.1 M622.8,39.7l-3.6-3.6 M643.4,18.9l-3.6-3.6 M622.6,39.7l-7,3.5l3.5-7L642,13.3c0,0,1.1-1.1,2.9,0.7
			c1.7,1.7,0.7,2.9,0.7,2.9L622.6,39.7z M480.1,48.5V59 M548.1,32.3c0,7-5.7,12.5-12.5,12.5c-6.9,0-12.5-5.7-12.5-12.5
			c0-7,5.7-12.5,12.5-12.5C542.5,19.7,548.1,25.4,548.1,32.3z M544.8,20.5l2.1,2.1 M533.8,17.3h3 M535.5,23.9v8.4"/>
	</g>
	<g>
		<path class="st4" d="M583,16.5l1.6,3h-1l-1.1-2.4l-2.1,2.4h-1l2.8-3L581,14h0.9l0.9,1.9l1.7-1.9h0.9L583,16.5z"/>
	</g>
	<g>
		<path class="st4" d="M587.8,12.6l-0.1,0.4h-2.9l0.1-0.2c0.3-1.1,0.8-1.7,1.7-2.4c0.5-0.3,1.2-0.9,1.4-1.5c0.1-0.5-0.1-0.8-0.6-0.8
			c-0.6,0-1,0.5-1.1,1h-0.5c0.3-0.9,0.9-1.6,1.8-1.6c0.8,0,1.2,0.4,1,1.2c-0.2,0.8-0.9,1.2-1.5,1.7l-0.4,0.3c-0.5,0.4-1,0.9-1.1,1.5
			L587.8,12.6L587.8,12.6z"/>
	</g>
</g>
<g>
	<path class="st3" d="M192.6,295.8v9.6 M207.2,285.5v20 M199.9,290.6v14.8 M214.5,283.8v21.7 M236.6,280.3v25.1 M229.3,278.6v26.9
		 M221.9,280.3v25.1 M243.9,283.8v21.7 M266,270v35.4 M258.6,283.8v21.7 M251.3,283.8v21.7 M273.2,266.5v38.9 M302.7,263.1v42.4
		 M295.3,270v35.4 M288,271.7v33.7 M280.6,263.1v42.4 M290.3,267.4c0,0.7-0.5,1.2-1.2,1.2s-1.2-0.5-1.2-1.2c0-0.7,0.5-1.2,1.2-1.2
		S290.3,266.7,290.3,267.4z M283.5,260.5c0,0.7-0.5,1.2-1.2,1.2s-1.2-0.5-1.2-1.2c0-0.7,0.5-1.2,1.2-1.2
		C282.9,259.2,283.5,259.8,283.5,260.5z M204.7,282.3c0,0.7-0.5,1.2-1.2,1.2c-0.7,0-1.2-0.5-1.2-1.2s0.5-1.2,1.2-1.2
		C204.2,281.1,204.7,281.7,204.7,282.3z M189.8,294.3l13.8-12l25.4-8.5 M263.5,263.6l18.7-3.1l6.9,6.9l8.4-10.4 M179.2,266.2v10.7
		 M178.3,280.9c0-0.1,0-0.3,0.1-0.3c0.1-0.1,0.1-0.2,0.2-0.3s0.2-0.2,0.3-0.2c0.1-0.1,0.3-0.1,0.3-0.1s0.3,0,0.3,0.1
		s0.2,0.1,0.3,0.2c0.1,0.1,0.2,0.2,0.2,0.3c0.1,0.1,0.1,0.3,0.1,0.3c0,0.1,0,0.3-0.1,0.3c-0.1,0.1-0.1,0.2-0.2,0.3
		c-0.1,0.1-0.2,0.2-0.3,0.2c-0.1,0.1-0.3,0.1-0.3,0.1s-0.3,0-0.3-0.1c-0.1-0.1-0.2-0.1-0.3-0.2c-0.1-0.1-0.2-0.2-0.2-0.3
		C178.3,281.2,178.3,281.1,178.3,280.9z M179.9,260.1l13.7,23.9c0.3,0.5-0.1,1.1-0.6,1.1h-27.6c-0.5,0-0.9-0.6-0.6-1.1l13.8-23.9
		C178.9,259.6,179.5,259.6,179.9,260.1z M251.5,270.1l-0.3,0.5l-5.3-3c-0.1-0.1-0.2-0.1-0.3-0.2c-0.1,0-0.1-0.1-0.2-0.1
		c-0.1-0.1-0.2-0.1-0.3-0.2c-0.1-0.1-0.2-0.2-0.3-0.3c0.1,0.3,0.1,0.5,0.1,0.7c0,0.1,0,0.3,0,0.5v5.9h-0.5V268c0-0.2,0-0.3,0-0.5
		c0-0.2,0.1-0.3,0.2-0.6c-0.3,0.3-0.4,0.3-0.5,0.4s-0.3,0.2-0.4,0.3l-5.2,3l-0.3-0.5l5.2-3c0.2-0.1,0.3-0.2,0.4-0.2
		c0.1,0,0.3-0.1,0.6-0.2c-0.3-0.1-0.5-0.2-0.6-0.3c-0.1,0-0.3-0.1-0.4-0.2l-5.3-3l0.3-0.5l5.3,3c0.1,0.1,0.2,0.1,0.3,0.2
		s0.1,0.1,0.2,0.2c0.1,0.1,0.1,0.1,0.2,0.2c0.1,0.1,0.2,0.2,0.3,0.3c-0.1-0.3-0.1-0.5-0.2-0.7c0-0.2,0-0.3,0-0.5v-5.9h0.5v5.9
		c0,0.2,0,0.3,0,0.5c0,0.2-0.1,0.3-0.1,0.7c0.3-0.3,0.4-0.4,0.5-0.5c0.1-0.1,0.3-0.2,0.4-0.3l5.2-3l0.3,0.5l-5.2,3
		c-0.2,0.1-0.3,0.2-0.4,0.3c-0.1,0.1-0.3,0.2-0.6,0.2c0.3,0.1,0.5,0.2,0.6,0.2s0.3,0.1,0.4,0.2L251.5,270.1z M254.5,276.2l18.1,18.1
		 M258.6,266.6c0,7.5-6.1,13.7-13.6,13.7c-7.5,0-13.7-6.1-13.7-13.7c0-7.5,6.1-13.7,13.7-13.7C252.4,253,258.6,259.1,258.6,266.6z
		 M361.2,258.1L361.2,258.1L361.2,258.1L361.2,258.1c0.2-0.3,0.3-0.7,0.3-0.9l0,0c0.1-0.3,0.2-0.6,0.3-0.8l0,0
		c0.1-0.3,0.2-0.5,0.3-0.8c0,0,0,0,0-0.1c0.1-0.3,0.2-0.5,0.3-0.8c0,0,0,0,0-0.1c0.1-0.3,0.1-0.5,0.2-0.7c0,0,0,0,0-0.1
		c0.1-0.3,0.1-0.4,0.2-0.7c0,0,0,0,0-0.1c0-0.2,0.1-0.4,0.1-0.6l0,0c0-0.2,0-0.3,0-0.6l0,0c0-0.3,0-0.4,0-0.7c0-0.1,0-0.2,0-0.2
		c0-0.2,0-0.3-0.1-0.5c0-0.1,0-0.1,0-0.2c0-0.3-0.1-0.4-0.1-0.7v-0.1c0-0.2-0.1-0.3-0.2-0.5c0-0.1,0-0.1-0.1-0.2
		c-0.1-0.2-0.1-0.4-0.2-0.6c0,0,0,0,0-0.1c-0.1-0.2-0.2-0.4-0.3-0.6c0,0,0-0.1-0.1-0.2c-0.1-0.2-0.2-0.3-0.3-0.5l-0.1-0.1
		c-0.1-0.2-0.3-0.4-0.3-0.6l0,0c-1.9-3-5.1-4.9-8.7-5.2c-0.3,0-0.4-0.1-0.7-0.1c0,0,0,0-0.1,0c-0.3,0-0.6,0-0.8,0.1
		c-3.9,0.3-7.1,2.5-8.9,5.7c0,0,0,0.1-0.1,0.1c-0.1,0.2-0.2,0.3-0.3,0.5c0,0,0,0.1-0.1,0.1l0,0l0,0c-0.1,0.2-0.2,0.4-0.3,0.6
		c0,0,0,0,0,0.1c-0.1,0.2-0.2,0.4-0.2,0.6c0,0.1,0,0.1-0.1,0.2c-0.1,0.2-0.1,0.3-0.2,0.5v0.1c-0.1,0.3-0.1,0.4-0.1,0.7
		c0,0.1,0,0.1,0,0.2l0,0l0,0c0,0.2,0,0.3-0.1,0.5c0,0.1,0,0.1,0,0.2l0,0l0,0c0,0.3,0,0.4,0,0.7c0,0.2,0,0.3,0,0.6l0,0
		c0,0.2,0.1,0.4,0.1,0.6l0,0c0,0.2,0.1,0.4,0.2,0.7c0,0,0,0,0,0.1c0.1,0.3,0.1,0.4,0.2,0.7c0,0,0,0,0,0.1c0.1,0.3,0.2,0.5,0.3,0.8
		c0,0,0,0,0,0.1c0.1,0.3,0.2,0.5,0.3,0.8l0,0c0.1,0.3,0.2,0.6,0.3,0.8l0,0c2.3,6.2,6.9,14.8,8.9,18.3c0.4,0.8,0.8,1.3,0.8,1.5
		c0,0.1,0.1,0.1,0.1,0.1s0.3-0.4,0.7-1.2C354.2,272.7,358.8,264.4,361.2,258.1z M350.9,256.8c-2.4-0.4-4.2-2.5-4.2-4.9
		c0-2.5,1.9-4.5,4.2-4.9c0.3-0.1,0.6-0.1,0.8-0.1c0,0,0,0,0.1,0c0.3,0,0.4,0,0.7,0.1c2.5,0.3,4.4,2.4,4.4,4.9s-1.9,4.6-4.4,4.9
		c-0.3,0-0.4,0.1-0.7,0.1c0,0,0,0-0.1,0C351.4,256.9,351.1,256.9,350.9,256.8z M344.5,287.9c0,0.8-0.7,1.5-1.6,1.5
		c-0.8,0-1.6-0.7-1.6-1.5s0.7-1.5,1.6-1.5C343.8,286.3,344.5,287.1,344.5,287.9 M357.4,266.6c1.4,0,2.7,0.8,3.2,2.1
		c0.2,0.4,5.2,20.5,5.2,20.5c0,1.9-1.6,3.4-3.5,3.4h-45.7c-1.9,0-3.5-1.5-3.5-3.4c0,0,5.2-20.6,5.6-21.1c0.6-0.9,1.7-1.5,3-1.5h24.7
		 M364.4,282.8h-49.8 M361.9,273.5H354 M349.6,273.5h-32.4 M333.2,266.6l-2.8,26 M348.7,292.6l-3-26 M157.2,263
		c1,0.3,2.2-0.2,2.5-1.3l-3.8-1.3C155.6,261.5,156.2,262.6,157.2,263z M172.3,251.5c1.1-3-0.3-6.3-2.9-8l0.6-1.8
		c0.3-0.8-0.2-1.5-0.8-1.8c-0.8-0.3-1.5,0.2-1.8,0.8l-0.6,1.8c-3.1-0.3-6.2,1.4-7.2,4.5c-3.2,9.3-5.6,9-5.6,9l-0.6,1.6l7.6,2.6
		l2,0.7l7.6,2.6l0.6-1.6C171.2,262,169.3,260.3,172.3,251.5z M270.9,321.1h-50.4 M217,223.9h42.6 M186.2,235.1c0,0,0,18.4,0,33.2
		 M186.2,287.4c0,4.6-0.1,10.8,0,15.4c0,2.4,1,4.4,3.1,5.8c1.3,0.8,2.7,1.1,4.1,1.1c35.1,0,70.3,0,105.4,0c0.4,0,0.8,0,1.2-0.1
		c2.3-0.3,4.1-1.4,5.2-3.3c0.8-1.3,0.9-2.7,0.9-4.1c0-9,0-38.2,0-47.2 M186.2,220.6H163 M163,225.8h23.2 M177,210.1h-14 M163,215.3
		h18.6 M207.6,210.1h-14 M193.7,215.3h14 M159.3,201.6h52 M216.9,234.5h-62.3v-38.4h62.2L216.9,234.5L216.9,234.5z M329.5,213.1h14
		 M343.4,221.8h-14 M329.5,227h14 M265.5,200.4h81.7 M340.2,253.7h-79.3v-58.9h91.9v46.6 M311.9,224.6c0-8.9-7.2-16.1-16.1-16.1
		c-0.4,0-0.8,0-1.3,0.1v16.1l10.1,13.4C309,235.1,311.9,230.1,311.9,224.6z M289,213.1c-8.3,0.7-14.9,7.5-14.9,16.1
		c0,8.9,7.2,16.1,16.1,16.1c3.3,0,6.3-1,8.9-2.7l-10.1-13.4L289,213.1L289,213.1z M243,180.3l-18.4,14.9l-18.4-14.9 M206.3,193.4
		v-13.1h36.8v25.4h-24.4"/>
</g>
<g>
	<path class="st3" d="M530.4,365.3c0.9-2.6-0.2-5.5-2.4-6.9l0.5-1.6c0.2-0.6-0.1-1.3-0.8-1.6c-0.6-0.3-1.3,0.1-1.6,0.8l-0.5,1.6
		c-2.6-0.3-5.2,1.2-6.1,3.8c-2.7,8-4.8,7.7-4.8,7.7l-0.4,1.4l6.5,2.3l1.7,0.6l6.5,2.3l0.4-1.4C529.5,374.4,527.9,372.8,530.4,365.3z
		 M532.5,374.6h61.3 M493.3,404.6c0,0,0,2.6,0,13.5 M493.3,443.9c0,4.7-0.1,6.6,0,11.3c0,2.4,1,4.5,3.1,5.9c1.3,0.9,2.7,1.1,4.3,1.1
		c36,0,71.9,0,107.9,0c0.4,0,0.8,0,1.2-0.1c2.4-0.3,4.1-1.4,5.3-3.4c0.8-1.3,1-2.8,1-4.3c0-4,0,7.5,0-3.5 M616,398v13.6
		 M459.6,382.4l-16.4,13.4l-16.4-13.4 M459.6,405.2h-32.8v-22.8h32.8V405.2z"/>
	<path class="st3" d="M517.5,375.3c0.9,0.3,1.8-0.2,2.2-1l-3.2-1.1C516.2,374,516.6,374.9,517.5,375.3"/>
	<path class="st3" d="M479.6,443.9c-1.7,0-3.1-1.4-3.1-3.1v-19.7c0-1.7,1.4-3.1,3.1-3.1h28.4c1.7,0,3.1,1.4,3.1,3.1v19.7
		c0,0.9-0.9,3.1-3.1,3.1H479.6z M505.7,415.1v5.6 M482.3,415.1v5.6 M469.7,430.9c0,6.1-4.9,11-10.9,11c-6,0-10.9-5-10.9-11
		c0-6.1,4.9-11,10.9-11C464.8,419.9,469.7,424.8,469.7,430.9z M466.9,420.6l1.8,1.8 M457.3,417.7h2.6 M458.7,423.5v7.4"/>
	<rect x="492" y="425.7" class="st3" width="3.3" height="3.3"/>
	<rect x="492" y="431.3" class="st3" width="3.3" height="3.3"/>
	<rect x="492" y="437" class="st3" width="3.3" height="3.3"/>
	<rect x="486.4" y="425.7" class="st3" width="3.3" height="3.3"/>
	<rect x="486.4" y="431.3" class="st3" width="3.3" height="3.3"/>
	<rect x="486.4" y="437" class="st3" width="3.3" height="3.3"/>
	<rect x="480.9" y="425.7" class="st3" width="3.3" height="3.3"/>
	<rect x="480.9" y="431.3" class="st3" width="3.3" height="3.3"/>
	<rect x="480.9" y="437" class="st3" width="3.3" height="3.3"/>
	<rect x="503.2" y="425.7" class="st3" width="3.3" height="3.3"/>
	<rect x="503.2" y="431.3" class="st3" width="3.3" height="3.3"/>
	<rect x="503.2" y="437" class="st3" width="3.3" height="3.3"/>
	<rect x="497.6" y="425.7" class="st3" width="3.3" height="3.3"/>
	<rect x="497.6" y="431.3" class="st3" width="3.3" height="3.3"/>
	<rect x="497.6" y="437" class="st3" width="3.3" height="3.3"/>
	<path class="st3" d="M496,367.4v-9.2 M495.3,370.9c0-0.1,0-0.2,0.1-0.3c0-0.1,0.1-0.2,0.2-0.3c0.1-0.1,0.2-0.1,0.2-0.2
		c0-0.1,0.2-0.1,0.3-0.1c0.1,0,0.2,0,0.3,0.1c0.1,0,0.2,0.1,0.2,0.2c0.1,0.1,0.1,0.2,0.2,0.3c0,0.1,0.1,0.2,0.1,0.3
		c0,0.1,0,0.2-0.1,0.3c0,0.1-0.1,0.2-0.2,0.3c-0.1,0.1-0.2,0.1-0.2,0.2c-0.1,0-0.2,0.1-0.3,0.1c-0.1,0-0.2,0-0.3-0.1
		c-0.1-0.1-0.2-0.1-0.2-0.2c0-0.1-0.1-0.2-0.2-0.3C495.3,371.1,495.3,371,495.3,370.9z M496.5,353.9l11,19.4
		c0.3,0.3-0.1,0.9-0.5,0.9h-22.1c-0.4,0-0.7-0.4-0.5-0.9l11.1-19.4C495.7,353.6,496.2,353.6,496.5,353.9z M558.2,337.8
		c0,6.2-11.2,23.7-11.2,23.7s-11.2-17.5-11.2-23.7c0-6.2,5-11.3,11.2-11.3C553.2,326.5,558.2,331.6,558.2,337.8z M552.7,337.8
		c0,3.2-2.5,5.8-5.8,5.8s-5.8-2.6-5.8-5.8c0-3.2,2.5-5.8,5.8-5.8S552.7,334.5,552.7,337.8z M615.7,441.3h6.6 M615.7,434.7h19.8
		 M615.7,428.1h19.8 M635.9,411.6l1.9,6.4 M631.5,411.6l1.9,6.4 M626.9,411.6l1.9,6.4 M622.4,411.6l1.9,6.4 M617.8,411.6l1.9,6.4
		 M613.4,411.6l1.9,6.4 M640,415.5h3.1v35.4H608v-35.4h3.2 M468.4,383.7c2.4-4.5,8-6.2,12.6-3.8c3.3,1.8,5.1,5.3,4.8,8.9
		 M476.7,388.1c-0.4,3.4-2,5.6-4.5,7.3c-2.4,1.6-5.6,1.2-5.6,1.2 M467.3,400.5c0,0,2.8,0.2,5.1-0.9c1.5-0.7,2.1-1.2,2.5-1.5
		c0.3-0.2,1-0.3,1.4,0.2c3.1,3.3,6.7,3.8,6.7,3.8 M470.7,404.1c0,0,2.2-0.9,3.6-1.4c0.7-0.3,1.3-0.2,1.7,0c1.3,0.6,3.2,2,3.2,2
		 M467.2,387.4c0,0,0.1,2,1.6,1.4c0.9-0.3,1.2-2,1.2-2c1.4-3.3,3.8-5.4,7.4-5.1c3.6,0.3,5.5,2.5,5.8,6.6c0.2,2.4,1.4,3.7,3.5,3.4
		 M479.9,396.3c2.4,2.7,5.3,2.2,5.3,2.2 M481.9,392.9c1.3,2.4,3.9,1.8,3.9,1.8 M466.9,392.7c0.7,0.8,2.3,0.8,3.5-0.1
		c0.8-0.5,1.4-1.3,1.7-2.4c0.3-1,1.6-5.7,5-5.7c2.2,0,3,1.7,2.9,4.4c0,0-0.3,3.9-3.2,6.3 M601.3,349.9l1.6,1.8l5.1-5.2 M630.2,377.9
		h-20.9v-4.1h20.9V377.9z M607.2,379.9h-8.7v-8.7h8.7V379.9z M630.2,365.6h-20.9v-4.1h20.9V365.6z M607.2,367.6h-8.7v-8.7h8.7V367.6
		z M630.2,354h-20.9v-4.1h20.9V354z M607.2,352v4.1h-8.7v-8.7h4.4 M623.2,398h-29.3v-59h41.4v46.4 M631.8,393.9l2.7,6.2l-2.3,1
		l-2.6-6.1l-4,3.9v-17.3c3.8,3.8,11.5,11.7,11.5,11.7L631.8,393.9z M513.7,381.1H510v-1.4c0-0.9-0.7-1.5-1.5-1.5h-7.3
		c-0.9,0-1.5,0.7-1.5,1.5v1.4h-3.8c-1.7,0-3.1,1.4-3.1,3.2v10.4c0,1.7,1.4,3.2,3.1,3.2h17.8c1.7,0,3.1-1.4,3.1-3.2v-10.4
		C516.9,382.5,515.5,381.1,513.7,381.1z M509.5,389.5c0,2.6-2.1,4.7-4.6,4.7c-2.5,0-4.6-2.1-4.6-4.7c0-2.6,2.1-4.7,4.6-4.7
		C507.4,384.8,509.5,386.9,509.5,389.5z M470.1,350l2.3-3.9 M481.8,361h-4.4 M484.3,348.6l-9.2,5.9 M450.1,361h-4.7 M442.9,348.8
		l9.4,5.9 M463.6,348.4v-13.6 M454.8,346.1l2.4,4.1 M460.9,364.9l5.4-5.5 M460.9,359.4l5.4,5.5 M451,373.8c0,0,0.9-3.5,1.9-3.5h21.3
		c1,0,1.9,3.5,1.9,3.5H451z M473.1,370.3v-8.1c0-5.2-4.2-9.5-9.4-9.5s-9.4,4.3-9.4,9.5v8.1 M588.9,442.2l-7.2-16.2
		c-0.7-1.7-2.5-2.4-4.3-1.9l-12.9,6.4l-8.2-16.1c-0.9-1.7-3.1-2.4-4.8-1.6c-1.7,0.9-2.4,3.1-1.5,4.8l12.2,23.7l-6.8-3
		c0,0-0.1,0-0.1-0.1c-0.1,0-0.1-0.1-0.2-0.1c-0.1,0-0.1,0-0.2-0.1c-0.1,0-0.1,0-0.2-0.1c-0.1,0-0.1,0-0.2,0s-0.1,0-0.2,0
		c-0.1,0-0.1,0-0.2,0s-0.1,0-0.2,0c-0.1,0-0.1,0-0.2,0c-0.1,0-0.1,0-0.2,0c-0.1,0-0.1,0-0.2,0c-0.1,0-0.1,0-0.2,0s-0.1,0-0.2,0
		c-0.1,0-0.1,0-0.2,0s-0.1,0-0.2,0.1c-0.1,0-0.1,0-0.2,0.1c-0.1,0-0.1,0-0.2,0.1c-0.1,0-0.1,0-0.2,0.1c-0.1,0-0.1,0.1-0.2,0.1
		s-0.1,0.1-0.2,0.1c-0.1,0-0.1,0.1-0.2,0.1c-0.1,0-0.1,0.1-0.2,0.1c-0.1,0-0.1,0.1-0.2,0.1s-0.1,0.1-0.2,0.1l-0.1,0.1L551,439
		c0,0.1-0.1,0.1-0.1,0.2c0,0.1-0.1,0.1-0.1,0.2c0,0.1-0.1,0.1-0.1,0.2c0,0.1-0.1,0.1-0.1,0.2s-0.1,0.1-0.1,0.2c0,0,0,0.1-0.1,0.1
		c0,0,0,0,0,0.1c0,0,0,0,0,0.1c0,0,0,0.1-0.1,0.1c0,0.1-0.1,0.1-0.1,0.2c0,0.1,0,0.1-0.1,0.2c0,0.1,0,0.1-0.1,0.2c0,0.1,0,0.1,0,0.2
		s0,0.1,0,0.2c0,0.1,0,0.1,0,0.2c0,0.1,0,0.1,0,0.2c0,0.1,0,0.1,0,0.2c0,0.1,0,0.1,0,0.2c0,0.1,0,0.1,0,0.2c0,0.1,0,0.1,0,0.2
		c0,0.1,0,0.1,0,0.2s0,0.1,0,0.2c0,0.1,0,0.1,0.1,0.2c0,0.1,0,0.1,0.1,0.2c0,0.1,0,0.1,0.1,0.2c0,0.1,0,0.1,0.1,0.2
		c0,0.1,0.1,0.1,0.1,0.2c0,0.1,0.1,0.1,0.1,0.2s0.1,0.1,0.1,0.2c0,0.1,0.1,0.1,0.1,0.2c0,0.1,0.1,0.1,0.1,0.2c0,0.1,0.1,0.1,0.1,0.2
		c0,0.1,0.1,0.1,0.1,0.1l0.1,0.1c0,0,0.1,0.1,0.2,0.1c0,0,0.1,0.1,0.2,0.1s0.1,0.1,0.2,0.1c0.1,0,0.1,0.1,0.2,0.1s0.1,0.1,0.2,0.1
		l0.1,0.1l20.2,10c0.5,0.3,1,0.3,1.6,0.3c0.5,0,1.1-0.2,1.7-0.4l11.7-8C589,446,589.6,443.9,588.9,442.2z M568.5,419.5
		c0.8-2.3,1-4.7,0.8-7.2c-0.4-4.4-2.6-8.2-5.9-11c-3.4-2.7-7.6-4-11.9-3.5c-4.3,0.4-8.2,2.6-10.9,6s-3.9,7.7-3.5,12.1
		s2.6,8.3,5.9,11c2.4,1.9,5.1,3.1,8,3.5 M550.3,434.6c-5.4-0.8-10.2-3.6-13.6-8c-3.3-4.4-4.7-9.9-4-15.3c0.7-5.5,3.6-10.3,7.9-13.6
		c4.4-3.3,9.7-4.8,15.1-4s10.2,3.6,13.6,8c3.3,4.4,4.7,9.9,4,15.3c-0.3,1.9-0.8,3.8-1.6,5.6 M550.6,425.6c-2.2-0.4-4.1-1.6-5.7-3.1
		c-2.1-2.1-3.3-4.9-3.4-7.9c-0.1-3,0.9-5.9,2.8-8.1c0.2-0.2,0.3-0.4,0.6-0.6c2.2-2.3,5.1-3.5,8.2-3.5c3.1,0,6,1.2,8.2,3.4
		c2.6,2.6,3.8,6.5,3.3,10.1 M510.7,423.1H477"/>
</g>
</svg>
