<?xml version="1.0" encoding="utf-8"?>
<!-- Generator: Adobe Illustrator 21.0.0, SVG Export Plug-In . SVG Version: 6.00 Build 0)  -->
<svg version="1.1" id="Layer_1" xmlns="http://www.w3.org/2000/svg" xmlns:xlink="http://www.w3.org/1999/xlink" x="0px" y="0px"
	 viewBox="0 0 198.4 198.4" style="enable-background:new 0 0 198.4 198.4;" xml:space="preserve">
<style type="text/css">
	.st0{fill:none;stroke:#000000;stroke-width:1.5;stroke-linecap:round;stroke-linejoin:round;stroke-miterlimit:10;}
</style>
<g>
	<title>icon-integration</title>
	<g>
		<path class="st0" d="M174.8,36.7c0-0.5-0.1-1.3-0.2-1.8c-0.1-0.4-0.2-0.8-0.4-1.3l-3.1,0.5c-0.2-0.4-0.4-0.9-0.8-1.3l1.8-2.8
			c-0.7-0.7-1.5-1.3-2.5-1.8l-1.8,2.7c-0.4-0.2-1.1-0.4-1.6-0.4l-0.5-3.1c-0.4,0-1.1,0.1-1.5,0.2s-1,0.3-1.4,0.4l0.5,3.1
			c-0.4,0.3-1,0.5-1.3,0.9l-2.5-1.8l-0.2-0.1c-0.7,0.8-1.3,1.6-1.7,2.6l0.9,0.5l1.8,1.3c-0.2,0.4-0.3,1.1-0.3,1.5l-3.1,0.5
			c0,0.4,0.1,0.8,0.2,1.3c0.2,0.5,0.4,1.3,0.4,1.8l3.1-0.5c0.3,0.4,0.4,0.8,0.8,1.2l-1.8,2.7c0.8,0.7,1.6,1.3,2.6,1.7l1.8-2.8
			c0.4,0.2,0.8,0.2,1.3,0.2l0.5,3.1c0.4,0,1-0.1,1.4-0.2c0.4-0.2,1.1-0.3,1.4-0.4l-0.5-3.1c0.4-0.2,0.7-0.4,1.1-0.6l2.7,1.8
			c0.7-0.7,1.3-1.5,1.8-2.5l-2.7-1.8c0.2-0.4,0.3-0.8,0.4-1.3L174.8,36.7z M166.2,38.5c-1.2,0.2-2.2-0.4-2.3-1.6s0.4-2.2,1.6-2.3
			c1.2-0.3,2.2,0.4,2.3,1.6C168,37.2,167.3,38.3,166.2,38.5z"/>
		<g>
			<path class="st0" d="M165.9,25.1v-3.3c0-2.2-0.4-3.1-2.7-3.1h-28c-2.2,0-2.7,0.8-2.7,3.1v17.8c0,2.2,0.4,2.7,2.7,2.7h21"/>
			<line class="st0" x1="163" y1="24.7" x2="135.7" y2="24.7"/>
			<line class="st0" x1="160" y1="21.8" x2="163" y2="21.8"/>
			<line class="st0" x1="150.8" y1="21.8" x2="156.9" y2="21.8"/>
		</g>
	</g>
	<g>
		<path class="st0" d="M179.9,130.6c4,0,4,0,4.1,0c4.9,0,9.1-4,9.1-9.1c0-4.9-4-9.1-9.1-9.1c-0.2,0-0.4,0-0.4,0c0-0.2,0-0.4,0-0.4
			c0-4.9-4-9.1-9.1-9.1c-3.9,0-7.1,2.3-8.4,5.8c-0.4-0.1-0.7-0.1-1.1-0.1c-3.1,0-5.8,1.5-7.5,4c-0.6-0.2-1.3-0.3-2.1-0.3
			c-4.9,0-9.1,4-9.1,9.1c0,4.9,4,9.1,9.1,9.1c0,0,1.3,0,8.2,0"/>
		<g>
			<g>
				<path class="st0" d="M180,132.1c0,0,0,3.6,0,4.8c0,1.9-3.6,3.4-8,3.4s-8-1.4-8-3.4c0-1.9,0-4.8,0-4.8"/>
				<path class="st0" d="M180,126.6c0,0,0,3.6,0,4.8c0,1.9-3.6,3.4-8,3.4s-8-1.4-8-3.4s0-4.8,0-4.8"/>
				<path class="st0" d="M180,120.8c0,0,0,3.6,0,4.8c0,1.9-3.6,3.4-8,3.4s-8-1.4-8-3.4c0-2,0-4.8,0-4.8"/>
				<ellipse class="st0" cx="172" cy="119.8" rx="8" ry="3.4"/>
			</g>
			<g>
				<path d="M166.5,123.9c-0.7,0-1.3,0.6-1.3,1.3s0.6,1.3,1.3,1.3s1.3-0.6,1.3-1.3S167.2,123.9,166.5,123.9L166.5,123.9z"/>
			</g>
			<g>
				<path d="M166.5,135.2c-0.7,0-1.3,0.6-1.3,1.3s0.6,1.3,1.3,1.3s1.3-0.6,1.3-1.3S167.2,135.2,166.5,135.2L166.5,135.2z"/>
			</g>
			<g>
				<path d="M166.5,129.6c-0.7,0-1.3,0.6-1.3,1.3s0.6,1.3,1.3,1.3s1.3-0.6,1.3-1.3S167.2,129.6,166.5,129.6L166.5,129.6z"/>
			</g>
		</g>
	</g>
	<g>
		<polygon class="st0" points="29.7,93 9.2,102.9 9.2,130 29.6,139.8 50.2,130 50.2,102.9 		"/>
		<line class="st0" x1="29.7" y1="139.8" x2="29.7" y2="132.3"/>
		<line class="st0" x1="40.8" y1="109.1" x2="50.2" y2="102.9"/>
		<g>
			<g>
				<path class="st0" d="M34.8,119c2.2,2.2,2.2,6.1,0,8.4s-6.1,2.2-8.4,0L34.8,119z"/>
				<line class="st0" x1="30.4" y1="118.9" x2="32.6" y2="121.1"/>
				<line class="st0" x1="28.6" y1="125.2" x2="26.2" y2="122.9"/>
			</g>
			<path class="st0" d="M50.2,120.8c0,5.1-4.1,9.3-9.3,9.3c-2.5,0-4.8-1-6.5-2.6"/>
		</g>
		<g>
			<g>
				<path class="st0" d="M24.6,117.6c-2.2-2.2-2.2-6.1,0-8.4s6.1-2.2,8.4,0L24.6,117.6z"/>
			</g>
			<path class="st0" d="M24.8,109c-1.6-1.5-3.9-2.5-6.4-2.5c-6.6,0-9.3-3.7-9.3-3.7"/>
		</g>
	</g>
	<g>
		<g>
			<path class="st0" d="M90.6,186.7h28.5c1.5,0,2.9-1.3,2.9-2.9v-23.5c0-1.5-1.3-2.9-2.9-2.9H79.9c-1.5,0-2.9,1.3-2.9,2.9v12.9"/>
			<line class="st0" x1="120.5" y1="171.7" x2="120.5" y2="172.5"/>
		</g>
		<path class="st0" d="M77.1,181.7c2.5,0,5,2.4,5,5"/>
		<path class="st0" d="M77.1,178.6c4.2,0,8.1,3.9,8.1,8.1"/>
		<path class="st0" d="M77.1,175.1c6.2,0,11.6,5.4,11.6,11.6"/>
		<g>
			<path class="st0" d="M77.1,184.3v2.4h2.4C79.5,185.4,78.3,184.3,77.1,184.3z"/>
		</g>
	</g>
	<g>
		<g>
			<g>
				<path class="st0" d="M58.2,63.2H41.1c-1.3,0-2.5-1.2-2.5-2.5V26.4c0-1.3,1.2-2.5,2.5-2.5h17.2c1.3,0,2.5,1.2,2.5,2.5v34.4
					C60.8,62,59.6,63.2,58.2,63.2z"/>
				<line class="st0" x1="47.7" y1="60.7" x2="51.7" y2="60.7"/>
			</g>
		</g>
		<line class="st0" x1="38.6" y1="58" x2="60.5" y2="58"/>
	</g>
	<path class="st0" d="M65.8,29.4c10.2-4.9,21.6-7.7,33.6-7.7c10.7,0,20.8,2.2,30,6"/>
	<path class="st0" d="M23.3,88.1c1.4-10.7,5.1-20.7,10.6-29.5"/>
	<path class="st0" d="M70.6,170.1c-14-5.7-26-15.3-34.5-27.6"/>
	<path class="st0" d="M163.5,141.4c-8.4,12.6-20.5,22.6-34.6,28.4"/>
	<path class="st0" d="M156.5,46.9c12.5,13.7,20,31.8,20,51.7"/>
</g>
</svg>
