<?xml version="1.0" encoding="utf-8"?>
<!-- Generator: Adobe Illustrator 24.0.0, SVG Export Plug-In . SVG Version: 6.00 Build 0)  -->
<svg version="1.1" id="Layer_1" xmlns="http://www.w3.org/2000/svg" xmlns:xlink="http://www.w3.org/1999/xlink" x="0px" y="0px"
	 viewBox="0 0 100 100" style="enable-background:new 0 0 100 100;" xml:space="preserve">
<style type="text/css">
	.st0{fill:none;stroke:#000000;stroke-linecap:round;stroke-linejoin:round;stroke-miterlimit:10;}
</style>
<g>
	<path class="st0" d="M69.87,76.06H28.31c-3.31,0-6-2.69-6-6V28.5c0-3.31,2.69-6,6-6h41.56c3.31,0,6,2.69,6,6v41.56
		C75.87,73.37,73.18,76.06,69.87,76.06z"/>
	<line class="st0" x1="36.01" y1="22.5" x2="36.01" y2="9.28"/>
	<line class="st0" x1="36.01" y1="89.28" x2="36.01" y2="76.06"/>
	<line class="st0" x1="62.16" y1="76.06" x2="62.16" y2="89.28"/>
	<line class="st0" x1="62.16" y1="9.28" x2="62.16" y2="22.5"/>
	<g>
		<line class="st0" x1="49.09" y1="76.06" x2="49.09" y2="89.28"/>
		<line class="st0" x1="49.09" y1="9.28" x2="49.09" y2="22.5"/>
	</g>
	<line class="st0" x1="22.31" y1="62.36" x2="9.09" y2="62.36"/>
	<line class="st0" x1="89.09" y1="62.36" x2="75.87" y2="62.36"/>
	<line class="st0" x1="75.87" y1="36.2" x2="89.09" y2="36.2"/>
	<line class="st0" x1="9.09" y1="36.2" x2="22.31" y2="36.2"/>
	<line class="st0" x1="75.87" y1="49.28" x2="89.09" y2="49.28"/>
	<line class="st0" x1="9.09" y1="49.28" x2="22.31" y2="49.28"/>
	<circle class="st0" cx="49.09" cy="49.28" r="19.57"/>
</g>
</svg>
