<?xml version="1.0" encoding="utf-8"?>
<!-- Generator: Adobe Illustrator 21.0.0, SVG Export Plug-In . SVG Version: 6.00 Build 0)  -->
<svg version="1.1" id="Capa_1" xmlns="http://www.w3.org/2000/svg" xmlns:xlink="http://www.w3.org/1999/xlink" x="0px" y="0px"
	 viewBox="0 0 283.5 198.4" style="enable-background:new 0 0 283.5 198.4;" xml:space="preserve">
<style type="text/css">
	.st0{fill:none;stroke:#FFFFFF;stroke-width:1.3;stroke-linecap:round;stroke-linejoin:round;stroke-miterlimit:10;}
	.st1{fill:#FFFFFF;}
	.st2{fill:none;stroke:#FFFFFF;stroke-width:1.3;stroke-miterlimit:10;}
	
		.st3{fill:none;stroke:#FFFFFF;stroke-width:1.3;stroke-linecap:round;stroke-linejoin:round;stroke-miterlimit:10;stroke-dasharray:1,5;}
</style>
<g>
	<g>
		<polyline class="st0" points="76.1,18.8 76.1,5.7 121.3,5.7 121.3,36.9 94.3,36.9 		"/>
		<polyline class="st0" points="121.3,5.7 98.7,23.9 76.1,5.7 		"/>
	</g>
	<g>
		<path class="st0" d="M177.8,46.1c-10.2,0.8-18.3,9.3-18.3,19.7c0,10.9,8.9,19.8,19.8,19.8c4.1,0,7.8-1.2,11-3.3l-12.5-16.5V46.1z"
			/>
		<path class="st0" d="M206,60.1c0-10.9-8.9-19.8-19.8-19.8c-0.5,0-1,0-1.5,0.1v19.7l12.5,16.5C202.5,73,206,67,206,60.1z"/>
		<polyline class="st0" points="236.3,93.5 154.6,93.5 154.6,28.5 256.2,28.5 256.2,75 		"/>
		<line class="st0" x1="154.9" y1="38.3" x2="255.4" y2="38.3"/>
		<line class="st0" x1="217.7" y1="63.1" x2="244.8" y2="63.1"/>
		<line class="st0" x1="244.8" y1="56.7" x2="217.7" y2="56.7"/>
		<line class="st0" x1="217.7" y1="46.1" x2="244.8" y2="46.1"/>
		<rect x="12.6" y="26.1" class="st0" width="76.5" height="47.3"/>
		<line class="st0" x1="18.4" y1="32.9" x2="82.3" y2="32.9"/>
		<line class="st0" x1="60.6" y1="49.8" x2="77.7" y2="49.8"/>
		<line class="st0" x1="77.7" y1="43.3" x2="60.6" y2="43.3"/>
		<line class="st0" x1="22.9" y1="49.8" x2="45.8" y2="49.8"/>
		<line class="st0" x1="40" y1="43.3" x2="22.9" y2="43.3"/>
		<line class="st0" x1="22.9" y1="62.7" x2="51.5" y2="62.7"/>
		<line class="st0" x1="51.5" y1="56.2" x2="22.9" y2="56.2"/>
		<g>
			<path class="st0" d="M68.8,79.2c0,0,0,26.6,0,44.8"/>
			<line class="st0" x1="95.7" y1="59.3" x2="151.1" y2="59.3"/>
		</g>
		<path class="st0" d="M237.1,192.8H46.4"/>
		<path class="st0" d="M216.4,109.1c0-8.7,0-7.4,0-11.6"/>
		<path class="st0" d="M68.8,137.4c0,5.6-0.1,13.3,0,18.9c0,2.9,1.3,5.4,3.8,7c1.5,1,3.3,1.3,5.1,1.3c43.2,0,86.4,0,129.6,0
			c0.5,0,1,0,1.4-0.1c2.8-0.3,5-1.6,6.4-4.1c0.9-1.6,1.2-3.3,1.2-5.1c0-1.9,0-3.4,0-7.6"/>
		<path class="st0" d="M173,178.7c-20.7,0-41.3,0-62,0"/>
	</g>
	<g>
		<g>
			<path class="st0" d="M36.3,97.3c1.3-3.8-0.3-7.8-3.6-9.8l0.8-2.2c0.3-0.9-0.2-1.9-1.1-2.2h0c-0.9-0.3-1.9,0.2-2.2,1.1l-0.8,2.2
				c-3.8-0.5-7.5,1.8-8.8,5.5c-3.9,11.4-6.9,11-6.9,11l-0.7,2l9.3,3.2l2.5,0.9l9.4,3.2l0.7-2C34.9,110.2,32.6,108,36.3,97.3z"/>
		</g>
		<g>
			<path class="st1" d="M17.8,111.4c1.3,0.4,2.7-0.2,3.1-1.5l-4.6-1.6C15.8,109.5,16.5,110.9,17.8,111.4z"/>
		</g>
	</g>
	<g>
		<path class="st2" d="M251.2,143.7l-3.6-31.9 M232.2,111.8l-3.5,31.9 M252.3,120.3h-39.8 M267.5,120.3h-9.7 M270.6,131.8h-61.3
			 M261.9,111.8c1.8,0,3.3,1.1,4,2.6c0.2,0.5,6.5,25.2,6.5,25.2c0,2.3-1.9,4.2-4.3,4.2h-56.2c-2.4,0-4.3-1.9-4.3-4.2
			c0,0,6.4-25.2,6.9-25.9c0.8-1.1,2.1-1.9,3.6-1.9h30.3"/>
		<path class="st2" d="M246,138c0,1.1-0.9,1.9-2,1.9c-1.1,0-2-0.9-2-1.9c0-1.1,0.9-1.9,2-1.9C245.2,136.1,246,136.9,246,138"/>
		<path class="st2" d="M253.9,99.7c-3-0.5-5.2-3-5.2-6s2.2-5.5,5.2-6c0.3-0.1,0.7-0.1,1-0.1c0,0,0,0,0.1,0c0.3,0,0.6,0,0.8,0.1
			c3.1,0.4,5.5,3,5.5,6.1s-2.4,5.7-5.5,6.1c-0.3,0-0.6,0.1-0.8,0.1c0,0,0,0-0.1,0C254.6,99.8,254.3,99.8,253.9,99.7z M266.6,101.3
			L266.6,101.3C266.6,101.3,266.6,101.2,266.6,101.3L266.6,101.3c0.2-0.4,0.3-0.8,0.4-1.2l0,0c0.1-0.4,0.3-0.7,0.4-1.1c0,0,0,0,0,0
			c0.1-0.3,0.2-0.7,0.3-1c0,0,0,0,0-0.1c0.1-0.3,0.2-0.6,0.3-0.9c0,0,0,0,0-0.1c0.1-0.3,0.2-0.6,0.2-0.9c0,0,0,0,0-0.1
			c0.1-0.3,0.1-0.5,0.2-0.8c0,0,0,0,0-0.1c0-0.3,0.1-0.5,0.1-0.7l0,0c0-0.2,0-0.5,0-0.7v0v0c0-0.3,0-0.6,0-0.8c0-0.1,0-0.2,0-0.2
			c0-0.2,0-0.4-0.1-0.6c0-0.1,0-0.1,0-0.2c0-0.3-0.1-0.5-0.1-0.8c0,0,0-0.1,0-0.1c-0.1-0.2-0.1-0.4-0.2-0.7c0-0.1,0-0.1-0.1-0.2
			c-0.1-0.2-0.1-0.5-0.2-0.7c0,0,0-0.1,0-0.1c-0.1-0.3-0.2-0.5-0.3-0.8c0-0.1,0-0.1-0.1-0.2c-0.1-0.2-0.2-0.4-0.3-0.6
			c0-0.1-0.1-0.1-0.1-0.2c-0.1-0.2-0.3-0.5-0.4-0.7v0c-2.2-3.6-6.2-6-10.7-6.3c-0.3,0-0.6-0.1-0.8-0.1c0,0,0,0-0.1,0
			c-0.3,0-0.7,0-1,0.1c-4.7,0.4-8.8,3.1-10.9,7c0,0.1-0.1,0.1-0.1,0.2c-0.1,0.2-0.2,0.4-0.3,0.6c0,0.1,0,0.1-0.1,0.2c0,0,0,0,0,0
			l0,0c-0.1,0.2-0.2,0.5-0.3,0.7c0,0,0,0,0,0.1c-0.1,0.2-0.2,0.5-0.2,0.7c0,0.1,0,0.1-0.1,0.2c-0.1,0.2-0.1,0.4-0.2,0.7
			c0,0,0,0.1,0,0.1c-0.1,0.3-0.1,0.5-0.1,0.8c0,0.1,0,0.1,0,0.2l0,0l0,0c0,0.2-0.1,0.4-0.1,0.6c0,0.1,0,0.2,0,0.2v0v0
			c0,0.3,0,0.6,0,0.8c0,0.2,0,0.4,0,0.7l0,0c0,0.2,0.1,0.5,0.1,0.7c0,0,0,0,0,0c0,0.3,0.1,0.5,0.2,0.8c0,0,0,0,0,0.1
			c0.1,0.3,0.1,0.6,0.2,0.9c0,0,0,0,0,0.1c0.1,0.3,0.2,0.6,0.3,0.9c0,0,0,0,0,0.1c0.1,0.3,0.2,0.7,0.3,1l0,0
			c0.1,0.3,0.2,0.7,0.4,1.1l0,0c2.8,7.6,8.5,18.2,10.9,22.5c0.5,0.9,0.9,1.6,1,1.8c0,0.1,0.1,0.1,0.1,0.1s0.3-0.5,0.8-1.5
			C258,119.3,263.6,109.1,266.6,101.3z"/>
	</g>
	<g>
		<g>
			<path class="st2" d="M55.6,102.8l16.9,29.4c0.3,0.6-0.1,1.3-0.8,1.3H37.9c-0.7,0-1.1-0.7-0.8-1.3l16.9-29.4
				C54.4,102.2,55.2,102.2,55.6,102.8z"/>
			<g>
				<path class="st1" d="M53.7,128.4c0-0.1,0-0.3,0.1-0.4c0.1-0.1,0.1-0.2,0.2-0.3c0.1-0.1,0.2-0.2,0.3-0.2c0.1-0.1,0.3-0.1,0.4-0.1
					c0.1,0,0.3,0,0.4,0.1c0.1,0.1,0.2,0.1,0.3,0.2c0.1,0.1,0.2,0.2,0.2,0.3s0.1,0.3,0.1,0.4c0,0.2,0,0.3-0.1,0.4
					c-0.1,0.1-0.1,0.2-0.2,0.3c-0.1,0.1-0.2,0.2-0.3,0.2c-0.1,0.1-0.3,0.1-0.4,0.1c-0.2,0-0.3,0-0.4-0.1c-0.1-0.1-0.2-0.1-0.3-0.2
					c-0.1-0.1-0.2-0.2-0.2-0.3C53.8,128.7,53.7,128.5,53.7,128.4z"/>
			</g>
		</g>
		<line class="st0" x1="54.8" y1="110.3" x2="54.8" y2="123.4"/>
	</g>
	<g>
		<g>
			<circle class="st0" cx="140.1" cy="111.8" r="16.8"/>
			<line class="st0" x1="151.9" y1="123.6" x2="174.2" y2="145.8"/>
		</g>
		<g>
			<path class="st1" d="M148.2,116.1l-0.3,0.6l-6.5-3.8c-0.1-0.1-0.2-0.1-0.3-0.2c-0.1,0-0.2-0.1-0.2-0.1c-0.1-0.1-0.2-0.1-0.3-0.2
				c-0.1-0.1-0.2-0.2-0.4-0.4c0.1,0.4,0.1,0.7,0.1,0.8c0,0.2,0,0.4,0,0.6v7.3h-0.6v-7.3c0-0.2,0-0.4,0-0.6c0-0.2,0.1-0.4,0.2-0.8
				c-0.3,0.3-0.5,0.5-0.6,0.5c-0.1,0.1-0.3,0.2-0.5,0.3l-6.5,3.8l-0.3-0.6l6.5-3.8c0.2-0.1,0.4-0.2,0.5-0.3c0.1,0,0.4-0.1,0.8-0.2
				c-0.4-0.1-0.6-0.2-0.8-0.3c-0.2,0-0.3-0.1-0.5-0.3l-6.5-3.8l0.3-0.6l6.5,3.8c0.1,0.1,0.2,0.1,0.3,0.2c0.1,0.1,0.1,0.1,0.2,0.2
				s0.1,0.1,0.2,0.2c0.1,0.1,0.2,0.2,0.4,0.4c-0.1-0.4-0.1-0.7-0.2-0.8c0-0.2,0-0.4,0-0.6v-7.3h0.6v7.3c0,0.2,0,0.4,0,0.6
				c0,0.2-0.1,0.5-0.1,0.8c0.3-0.3,0.5-0.5,0.6-0.6c0.1-0.1,0.3-0.2,0.5-0.4l6.5-3.8l0.3,0.6l-6.5,3.8c-0.2,0.1-0.4,0.2-0.5,0.3
				c-0.2,0.1-0.4,0.2-0.7,0.2c0.4,0.1,0.6,0.2,0.8,0.2c0.1,0,0.3,0.1,0.5,0.3L148.2,116.1z"/>
		</g>
		<polyline class="st0" points="163,108.1 186.1,104.3 194.5,112.7 204.8,100 		"/>
		<polyline class="st0" points="72.3,145.8 89.3,131.1 120.5,120.7 		"/>
		<circle class="st0" cx="89.3" cy="131.1" r="1.5"/>
		<circle class="st0" cx="186.1" cy="104.3" r="1.5"/>
		<circle class="st0" cx="194.5" cy="112.7" r="1.5"/>
		<g>
			<line class="st3" x1="184" y1="107.5" x2="184" y2="159.6"/>
			<line class="st3" x1="193.1" y1="118.1" x2="193.1" y2="159.6"/>
			<line class="st3" x1="202.1" y1="116" x2="202.1" y2="159.6"/>
			<line class="st3" x1="211.1" y1="147.3" x2="211.1" y2="159.6"/>
			<line class="st3" x1="211.1" y1="107.5" x2="211.1" y2="116"/>
			<line class="st3" x1="175" y1="111.7" x2="175" y2="159.6"/>
			<line class="st3" x1="147.9" y1="132.9" x2="147.9" y2="159.6"/>
			<line class="st3" x1="157" y1="132.9" x2="157" y2="159.6"/>
			<line class="st3" x1="166" y1="116" x2="166" y2="159.6"/>
			<line class="st3" x1="138.9" y1="132.9" x2="138.9" y2="159.6"/>
			<line class="st3" x1="111.8" y1="128.7" x2="111.8" y2="159.6"/>
			<line class="st3" x1="120.9" y1="126.6" x2="120.9" y2="159.6"/>
			<line class="st3" x1="129.9" y1="128.7" x2="129.9" y2="159.6"/>
			<line class="st3" x1="102.8" y1="132.9" x2="102.8" y2="159.6"/>
			<line class="st3" x1="84.7" y1="141.4" x2="84.7" y2="159.6"/>
			<line class="st3" x1="93.8" y1="135" x2="93.8" y2="159.6"/>
			<line class="st3" x1="75.7" y1="147.7" x2="75.7" y2="159.6"/>
		</g>
	</g>
</g>
</svg>
