<?xml version="1.0" encoding="utf-8"?>
<!-- Generator: Adobe Illustrator 21.0.0, SVG Export Plug-In . SVG Version: 6.00 Build 0)  -->
<svg version="1.1" id="Capa_1" xmlns="http://www.w3.org/2000/svg" xmlns:xlink="http://www.w3.org/1999/xlink" x="0px" y="0px"
	 viewBox="0 0 283.5 198.4" style="enable-background:new 0 0 283.5 198.4;" xml:space="preserve">
<style type="text/css">
	.st0{fill:none;stroke:#000000;stroke-width:1.5;stroke-linecap:round;stroke-linejoin:round;stroke-miterlimit:10;}
	.st1{fill:#DEDEDE;stroke:#000000;stroke-width:1.5;stroke-miterlimit:10;}
</style>
<path class="st0" d="M274.7,165.1c-3.2-0.3-21.2,0.3-34.2,0.3c-0.7,0-28.5,0.2-34.5,0.2c-2.2,0-17.2-0.3-19.1-0.1
	c-10.4-0.3-24.6-0.6-45.2,0c-12.8,0.3-29.7-0.6-35.6,1.6c-0.8-0.1-32.6-0.3-33.7,0.5c-0.3,0.3-25.6,0.1-28.2,0.1
	c-13.7,0-34.4-1.4-35.7-1.6"/>
<g>
	<path class="st1" d="M150.3,41.7c0,8.9-9.3,13.5-9.3,13.5s-9.3-4.1-9.3-13.5s9.3-17.9,9.3-17.9S150.3,32.8,150.3,41.7z"/>
	<line class="st0" x1="141.1" y1="39.6" x2="141.1" y2="167.3"/>
	<path class="st1" d="M166.7,93.5c-4.3,4.3-11,2.2-11,2.2s-2.5-6.4,2.2-11c4.6-4.6,13.2-4.2,13.2-4.2S171,89,166.7,93.5z"/>
	<line class="st0" x1="163.2" y1="87.9" x2="141.7" y2="110"/>
	<path class="st1" d="M124.5,64.1c4.3,4.3,2.2,11,2.2,11s-6.4,2.5-11-2.2c-4.7-4.5-4.3-13.1-4.3-13.1S120.1,59.8,124.5,64.1z"/>
	<line class="st0" x1="118.9" y1="67.6" x2="141" y2="89.1"/>
	<path class="st1" d="M126.3,105.5c3.8,3.8,1.8,9.8,1.8,9.8s-5.8,2.3-9.8-1.8c-4.1-4.1-3.7-11.7-3.7-11.7S122.4,101.6,126.3,105.5z"
		/>
	<line class="st0" x1="121.3" y1="108.6" x2="141" y2="127.7"/>
	<path class="st0" d="M141,167.6c0,0,0.3,6.5-2.9,12.9c-3.1,6.4-3.3,10.8-1.3,13.5"/>
	<path class="st0" d="M139.3,177.9c-1.3,2.9-5.5,3.2-7.3,3.1c-4.9-0.3-8.9,4.4-8.9,4.4"/>
	<path class="st0" d="M148.8,187c-3.6-3.1,0.7-6.7-2-8.9s-4.2-0.2-6.2-4"/>
</g>
</svg>
